('/home/alex/PycharmProjects/check_rtsp./build/gui/gui',
 True,
 False,
 True,
 None,
 None,
 False,
 False,
 None,
 True,
 True,
 False,
 None,
 None,
 None,
 '/home/alex/PycharmProjects/check_rtsp./build/gui/gui.pkg',
 [('PYZ-00.pyz',
   '/home/alex/PycharmProjects/check_rtsp./build/gui/PYZ-00.pyz',
   'PYZ'),
  ('struct',
   '/home/alex/PycharmProjects/check_rtsp./build/gui/localpycs/struct.pyc',
   'PYMODULE'),
  ('pyimod01_archive',
   '/home/alex/PycharmProjects/check_rtsp./build/gui/localpycs/pyimod01_archive.pyc',
   'PYMODULE'),
  ('pyimod02_importers',
   '/home/alex/PycharmProjects/check_rtsp./build/gui/localpycs/pyimod02_importers.pyc',
   'PYMODULE'),
  ('pyimod03_ctypes',
   '/home/alex/PycharmProjects/check_rtsp./build/gui/localpycs/pyimod03_ctypes.pyc',
   'PYMODULE'),
  ('pyiboot01_bootstrap',
   '/home/alex/.pyenv/versions/3.9.1/envs/venv/lib/python3.9/site-packages/PyInstaller/loader/pyiboot01_bootstrap.py',
   'PYSOURCE'),
  ('pyi_rth_pkgutil',
   '/home/alex/.pyenv/versions/3.9.1/envs/venv/lib/python3.9/site-packages/PyInstaller/hooks/rthooks/pyi_rth_pkgutil.py',
   'PYSOURCE'),
  ('pyi_rth_inspect',
   '/home/alex/.pyenv/versions/3.9.1/envs/venv/lib/python3.9/site-packages/PyInstaller/hooks/rthooks/pyi_rth_inspect.py',
   'PYSOURCE'),
  ('pyi_rth_multiprocessing',
   '/home/alex/.pyenv/versions/3.9.1/envs/venv/lib/python3.9/site-packages/PyInstaller/hooks/rthooks/pyi_rth_multiprocessing.py',
   'PYSOURCE'),
  ('pyi_rth_pkgres',
   '/home/alex/.pyenv/versions/3.9.1/envs/venv/lib/python3.9/site-packages/PyInstaller/hooks/rthooks/pyi_rth_pkgres.py',
   'PYSOURCE'),
  ('pyi_rth__tkinter',
   '/home/alex/.pyenv/versions/3.9.1/envs/venv/lib/python3.9/site-packages/PyInstaller/hooks/rthooks/pyi_rth__tkinter.py',
   'PYSOURCE'),
  ('gui', '/home/alex/PycharmProjects/check_rtsp./gui.py', 'PYSOURCE'),
  ('lib-dynload/_struct.cpython-39-x86_64-linux-gnu.so',
   '/home/alex/.pyenv/versions/3.9.1/lib/python3.9/lib-dynload/_struct.cpython-39-x86_64-linux-gnu.so',
   'EXTENSION'),
  ('lib-dynload/zlib.cpython-39-x86_64-linux-gnu.so',
   '/home/alex/.pyenv/versions/3.9.1/lib/python3.9/lib-dynload/zlib.cpython-39-x86_64-linux-gnu.so',
   'EXTENSION')],
 [],
 False,
 False,
 1675525567,
 [('run',
   '/home/alex/.pyenv/versions/3.9.1/envs/venv/lib/python3.9/site-packages/PyInstaller/bootloader/Linux-64bit-intel/run',
   'EXECUTABLE')])
