('/home/alex/PycharmProjects/check_rtsp./build/gui/PYZ-00.pyz',
 [('pkg_resources',
   '/home/alex/.pyenv/versions/3.9.1/envs/venv/lib/python3.9/site-packages/pkg_resources/__init__.py',
   'PYMODULE'),
  ('pkg_resources._vendor.six',
   '/home/alex/.pyenv/versions/3.9.1/envs/venv/lib/python3.9/site-packages/pkg_resources/_vendor/six.py',
   'PYMODULE'),
  ('struct',
   '/home/alex/.pyenv/versions/3.9.1/lib/python3.9/struct.py',
   'PYMODULE'),
  ('pkg_resources._vendor.pyparsing',
   '/home/alex/.pyenv/versions/3.9.1/envs/venv/lib/python3.9/site-packages/pkg_resources/_vendor/pyparsing.py',
   'PYMODULE'),
  ('uuid',
   '/home/alex/.pyenv/versions/3.9.1/lib/python3.9/uuid.py',
   'PYMODULE'),
  ('hashlib',
   '/home/alex/.pyenv/versions/3.9.1/lib/python3.9/hashlib.py',
   'PYMODULE'),
  ('logging',
   '/home/alex/.pyenv/versions/3.9.1/lib/python3.9/logging/__init__.py',
   'PYMODULE'),
  ('pickle',
   '/home/alex/.pyenv/versions/3.9.1/lib/python3.9/pickle.py',
   'PYMODULE'),
  ('_compat_pickle',
   '/home/alex/.pyenv/versions/3.9.1/lib/python3.9/_compat_pickle.py',
   'PYMODULE'),
  ('random',
   '/home/alex/.pyenv/versions/3.9.1/lib/python3.9/random.py',
   'PYMODULE'),
  ('statistics',
   '/home/alex/.pyenv/versions/3.9.1/lib/python3.9/statistics.py',
   'PYMODULE'),
  ('decimal',
   '/home/alex/.pyenv/versions/3.9.1/lib/python3.9/decimal.py',
   'PYMODULE'),
  ('_pydecimal',
   '/home/alex/.pyenv/versions/3.9.1/lib/python3.9/_pydecimal.py',
   'PYMODULE'),
  ('contextvars',
   '/home/alex/.pyenv/versions/3.9.1/lib/python3.9/contextvars.py',
   'PYMODULE'),
  ('fractions',
   '/home/alex/.pyenv/versions/3.9.1/lib/python3.9/fractions.py',
   'PYMODULE'),
  ('numbers',
   '/home/alex/.pyenv/versions/3.9.1/lib/python3.9/numbers.py',
   'PYMODULE'),
  ('bisect',
   '/home/alex/.pyenv/versions/3.9.1/lib/python3.9/bisect.py',
   'PYMODULE'),
  ('socket',
   '/home/alex/.pyenv/versions/3.9.1/lib/python3.9/socket.py',
   'PYMODULE'),
  ('selectors',
   '/home/alex/.pyenv/versions/3.9.1/lib/python3.9/selectors.py',
   'PYMODULE'),
  ('subprocess',
   '/home/alex/.pyenv/versions/3.9.1/lib/python3.9/subprocess.py',
   'PYMODULE'),
  ('contextlib',
   '/home/alex/.pyenv/versions/3.9.1/lib/python3.9/contextlib.py',
   'PYMODULE'),
  ('signal',
   '/home/alex/.pyenv/versions/3.9.1/lib/python3.9/signal.py',
   'PYMODULE'),
  ('shutil',
   '/home/alex/.pyenv/versions/3.9.1/lib/python3.9/shutil.py',
   'PYMODULE'),
  ('tarfile',
   '/home/alex/.pyenv/versions/3.9.1/lib/python3.9/tarfile.py',
   'PYMODULE'),
  ('argparse',
   '/home/alex/.pyenv/versions/3.9.1/lib/python3.9/argparse.py',
   'PYMODULE'),
  ('gettext',
   '/home/alex/.pyenv/versions/3.9.1/lib/python3.9/gettext.py',
   'PYMODULE'),
  ('gzip',
   '/home/alex/.pyenv/versions/3.9.1/lib/python3.9/gzip.py',
   'PYMODULE'),
  ('_compression',
   '/home/alex/.pyenv/versions/3.9.1/lib/python3.9/_compression.py',
   'PYMODULE'),
  ('lzma',
   '/home/alex/.pyenv/versions/3.9.1/lib/python3.9/lzma.py',
   'PYMODULE'),
  ('bz2', '/home/alex/.pyenv/versions/3.9.1/lib/python3.9/bz2.py', 'PYMODULE'),
  ('pdb', '/home/alex/.pyenv/versions/3.9.1/lib/python3.9/pdb.py', 'PYMODULE'),
  ('getopt',
   '/home/alex/.pyenv/versions/3.9.1/lib/python3.9/getopt.py',
   'PYMODULE'),
  ('pydoc',
   '/home/alex/.pyenv/versions/3.9.1/lib/python3.9/pydoc.py',
   'PYMODULE'),
  ('webbrowser',
   '/home/alex/.pyenv/versions/3.9.1/lib/python3.9/webbrowser.py',
   'PYMODULE'),
  ('email.message',
   '/home/alex/.pyenv/versions/3.9.1/lib/python3.9/email/message.py',
   'PYMODULE'),
  ('email.policy',
   '/home/alex/.pyenv/versions/3.9.1/lib/python3.9/email/policy.py',
   'PYMODULE'),
  ('email.contentmanager',
   '/home/alex/.pyenv/versions/3.9.1/lib/python3.9/email/contentmanager.py',
   'PYMODULE'),
  ('email.quoprimime',
   '/home/alex/.pyenv/versions/3.9.1/lib/python3.9/email/quoprimime.py',
   'PYMODULE'),
  ('email.headerregistry',
   '/home/alex/.pyenv/versions/3.9.1/lib/python3.9/email/headerregistry.py',
   'PYMODULE'),
  ('email._header_value_parser',
   '/home/alex/.pyenv/versions/3.9.1/lib/python3.9/email/_header_value_parser.py',
   'PYMODULE'),
  ('email.iterators',
   '/home/alex/.pyenv/versions/3.9.1/lib/python3.9/email/iterators.py',
   'PYMODULE'),
  ('email.generator',
   '/home/alex/.pyenv/versions/3.9.1/lib/python3.9/email/generator.py',
   'PYMODULE'),
  ('email._encoded_words',
   '/home/alex/.pyenv/versions/3.9.1/lib/python3.9/email/_encoded_words.py',
   'PYMODULE'),
  ('base64',
   '/home/alex/.pyenv/versions/3.9.1/lib/python3.9/base64.py',
   'PYMODULE'),
  ('email.charset',
   '/home/alex/.pyenv/versions/3.9.1/lib/python3.9/email/charset.py',
   'PYMODULE'),
  ('email.encoders',
   '/home/alex/.pyenv/versions/3.9.1/lib/python3.9/email/encoders.py',
   'PYMODULE'),
  ('email.base64mime',
   '/home/alex/.pyenv/versions/3.9.1/lib/python3.9/email/base64mime.py',
   'PYMODULE'),
  ('email._policybase',
   '/home/alex/.pyenv/versions/3.9.1/lib/python3.9/email/_policybase.py',
   'PYMODULE'),
  ('email.header',
   '/home/alex/.pyenv/versions/3.9.1/lib/python3.9/email/header.py',
   'PYMODULE'),
  ('email.errors',
   '/home/alex/.pyenv/versions/3.9.1/lib/python3.9/email/errors.py',
   'PYMODULE'),
  ('email.utils',
   '/home/alex/.pyenv/versions/3.9.1/lib/python3.9/email/utils.py',
   'PYMODULE'),
  ('email._parseaddr',
   '/home/alex/.pyenv/versions/3.9.1/lib/python3.9/email/_parseaddr.py',
   'PYMODULE'),
  ('calendar',
   '/home/alex/.pyenv/versions/3.9.1/lib/python3.9/calendar.py',
   'PYMODULE'),
  ('email',
   '/home/alex/.pyenv/versions/3.9.1/lib/python3.9/email/__init__.py',
   'PYMODULE'),
  ('quopri',
   '/home/alex/.pyenv/versions/3.9.1/lib/python3.9/quopri.py',
   'PYMODULE'),
  ('uu', '/home/alex/.pyenv/versions/3.9.1/lib/python3.9/uu.py', 'PYMODULE'),
  ('optparse',
   '/home/alex/.pyenv/versions/3.9.1/lib/python3.9/optparse.py',
   'PYMODULE'),
  ('http.server',
   '/home/alex/.pyenv/versions/3.9.1/lib/python3.9/http/server.py',
   'PYMODULE'),
  ('http',
   '/home/alex/.pyenv/versions/3.9.1/lib/python3.9/http/__init__.py',
   'PYMODULE'),
  ('socketserver',
   '/home/alex/.pyenv/versions/3.9.1/lib/python3.9/socketserver.py',
   'PYMODULE'),
  ('mimetypes',
   '/home/alex/.pyenv/versions/3.9.1/lib/python3.9/mimetypes.py',
   'PYMODULE'),
  ('http.client',
   '/home/alex/.pyenv/versions/3.9.1/lib/python3.9/http/client.py',
   'PYMODULE'),
  ('ssl', '/home/alex/.pyenv/versions/3.9.1/lib/python3.9/ssl.py', 'PYMODULE'),
  ('html',
   '/home/alex/.pyenv/versions/3.9.1/lib/python3.9/html/__init__.py',
   'PYMODULE'),
  ('html.entities',
   '/home/alex/.pyenv/versions/3.9.1/lib/python3.9/html/entities.py',
   'PYMODULE'),
  ('pydoc_data.topics',
   '/home/alex/.pyenv/versions/3.9.1/lib/python3.9/pydoc_data/topics.py',
   'PYMODULE'),
  ('pydoc_data',
   '/home/alex/.pyenv/versions/3.9.1/lib/python3.9/pydoc_data/__init__.py',
   'PYMODULE'),
  ('tty', '/home/alex/.pyenv/versions/3.9.1/lib/python3.9/tty.py', 'PYMODULE'),
  ('importlib.util',
   '/home/alex/.pyenv/versions/3.9.1/lib/python3.9/importlib/util.py',
   'PYMODULE'),
  ('importlib.abc',
   '/home/alex/.pyenv/versions/3.9.1/lib/python3.9/importlib/abc.py',
   'PYMODULE'),
  ('typing',
   '/home/alex/.pyenv/versions/3.9.1/lib/python3.9/typing.py',
   'PYMODULE'),
  ('importlib',
   '/home/alex/.pyenv/versions/3.9.1/lib/python3.9/importlib/__init__.py',
   'PYMODULE'),
  ('importlib._bootstrap_external',
   '/home/alex/.pyenv/versions/3.9.1/lib/python3.9/importlib/_bootstrap_external.py',
   'PYMODULE'),
  ('importlib.metadata',
   '/home/alex/.pyenv/versions/3.9.1/lib/python3.9/importlib/metadata.py',
   'PYMODULE'),
  ('configparser',
   '/home/alex/.pyenv/versions/3.9.1/lib/python3.9/configparser.py',
   'PYMODULE'),
  ('csv', '/home/alex/.pyenv/versions/3.9.1/lib/python3.9/csv.py', 'PYMODULE'),
  ('importlib._bootstrap',
   '/home/alex/.pyenv/versions/3.9.1/lib/python3.9/importlib/_bootstrap.py',
   'PYMODULE'),
  ('runpy',
   '/home/alex/.pyenv/versions/3.9.1/lib/python3.9/runpy.py',
   'PYMODULE'),
  ('shlex',
   '/home/alex/.pyenv/versions/3.9.1/lib/python3.9/shlex.py',
   'PYMODULE'),
  ('glob',
   '/home/alex/.pyenv/versions/3.9.1/lib/python3.9/glob.py',
   'PYMODULE'),
  ('code',
   '/home/alex/.pyenv/versions/3.9.1/lib/python3.9/code.py',
   'PYMODULE'),
  ('codeop',
   '/home/alex/.pyenv/versions/3.9.1/lib/python3.9/codeop.py',
   'PYMODULE'),
  ('dis', '/home/alex/.pyenv/versions/3.9.1/lib/python3.9/dis.py', 'PYMODULE'),
  ('opcode',
   '/home/alex/.pyenv/versions/3.9.1/lib/python3.9/opcode.py',
   'PYMODULE'),
  ('bdb', '/home/alex/.pyenv/versions/3.9.1/lib/python3.9/bdb.py', 'PYMODULE'),
  ('cmd', '/home/alex/.pyenv/versions/3.9.1/lib/python3.9/cmd.py', 'PYMODULE'),
  ('threading',
   '/home/alex/.pyenv/versions/3.9.1/lib/python3.9/threading.py',
   'PYMODULE'),
  ('_threading_local',
   '/home/alex/.pyenv/versions/3.9.1/lib/python3.9/_threading_local.py',
   'PYMODULE'),
  ('datetime',
   '/home/alex/.pyenv/versions/3.9.1/lib/python3.9/datetime.py',
   'PYMODULE'),
  ('_strptime',
   '/home/alex/.pyenv/versions/3.9.1/lib/python3.9/_strptime.py',
   'PYMODULE'),
  ('pprint',
   '/home/alex/.pyenv/versions/3.9.1/lib/python3.9/pprint.py',
   'PYMODULE'),
  ('copy',
   '/home/alex/.pyenv/versions/3.9.1/lib/python3.9/copy.py',
   'PYMODULE'),
  ('string',
   '/home/alex/.pyenv/versions/3.9.1/lib/python3.9/string.py',
   'PYMODULE'),
  ('pkg_resources._vendor.packaging.version',
   '/home/alex/.pyenv/versions/3.9.1/envs/venv/lib/python3.9/site-packages/pkg_resources/_vendor/packaging/version.py',
   'PYMODULE'),
  ('pkg_resources._vendor.packaging.utils',
   '/home/alex/.pyenv/versions/3.9.1/envs/venv/lib/python3.9/site-packages/pkg_resources/_vendor/packaging/utils.py',
   'PYMODULE'),
  ('pkg_resources._vendor.packaging.tags',
   '/home/alex/.pyenv/versions/3.9.1/envs/venv/lib/python3.9/site-packages/pkg_resources/_vendor/packaging/tags.py',
   'PYMODULE'),
  ('ctypes',
   '/home/alex/.pyenv/versions/3.9.1/lib/python3.9/ctypes/__init__.py',
   'PYMODULE'),
  ('ctypes.wintypes',
   '/home/alex/.pyenv/versions/3.9.1/lib/python3.9/ctypes/wintypes.py',
   'PYMODULE'),
  ('ctypes._endian',
   '/home/alex/.pyenv/versions/3.9.1/lib/python3.9/ctypes/_endian.py',
   'PYMODULE'),
  ('distutils.util',
   '/home/alex/.pyenv/versions/3.9.1/lib/python3.9/distutils/util.py',
   'PYMODULE'),
  ('distutils.filelist',
   '/home/alex/.pyenv/versions/3.9.1/lib/python3.9/distutils/filelist.py',
   'PYMODULE'),
  ('distutils.debug',
   '/home/alex/.pyenv/versions/3.9.1/lib/python3.9/distutils/debug.py',
   'PYMODULE'),
  ('distutils.file_util',
   '/home/alex/.pyenv/versions/3.9.1/lib/python3.9/distutils/file_util.py',
   'PYMODULE'),
  ('distutils.dir_util',
   '/home/alex/.pyenv/versions/3.9.1/lib/python3.9/distutils/dir_util.py',
   'PYMODULE'),
  ('py_compile',
   '/home/alex/.pyenv/versions/3.9.1/lib/python3.9/py_compile.py',
   'PYMODULE'),
  ('distutils.sysconfig',
   '/home/alex/.pyenv/versions/3.9.1/lib/python3.9/distutils/sysconfig.py',
   'PYMODULE'),
  ('distutils.text_file',
   '/home/alex/.pyenv/versions/3.9.1/lib/python3.9/distutils/text_file.py',
   'PYMODULE'),
  ('_osx_support',
   '/home/alex/.pyenv/versions/3.9.1/lib/python3.9/_osx_support.py',
   'PYMODULE'),
  ('_aix_support',
   '/home/alex/.pyenv/versions/3.9.1/lib/python3.9/_aix_support.py',
   'PYMODULE'),
  ('_bootsubprocess',
   '/home/alex/.pyenv/versions/3.9.1/lib/python3.9/_bootsubprocess.py',
   'PYMODULE'),
  ('distutils.log',
   '/home/alex/.pyenv/versions/3.9.1/lib/python3.9/distutils/log.py',
   'PYMODULE'),
  ('distutils',
   '/home/alex/.pyenv/versions/3.9.1/lib/python3.9/distutils/__init__.py',
   'PYMODULE'),
  ('_sysconfigdata__linux_x86_64-linux-gnu',
   '/home/alex/.pyenv/versions/3.9.1/lib/python3.9/_sysconfigdata__linux_x86_64-linux-gnu.py',
   'PYMODULE'),
  ('distutils.spawn',
   '/home/alex/.pyenv/versions/3.9.1/lib/python3.9/distutils/spawn.py',
   'PYMODULE'),
  ('distutils.dep_util',
   '/home/alex/.pyenv/versions/3.9.1/lib/python3.9/distutils/dep_util.py',
   'PYMODULE'),
  ('distutils.errors',
   '/home/alex/.pyenv/versions/3.9.1/lib/python3.9/distutils/errors.py',
   'PYMODULE'),
  ('pkg_resources._vendor.packaging.specifiers',
   '/home/alex/.pyenv/versions/3.9.1/envs/venv/lib/python3.9/site-packages/pkg_resources/_vendor/packaging/specifiers.py',
   'PYMODULE'),
  ('pkg_resources._vendor.packaging.requirements',
   '/home/alex/.pyenv/versions/3.9.1/envs/venv/lib/python3.9/site-packages/pkg_resources/_vendor/packaging/requirements.py',
   'PYMODULE'),
  ('pkg_resources._vendor.packaging.markers',
   '/home/alex/.pyenv/versions/3.9.1/envs/venv/lib/python3.9/site-packages/pkg_resources/_vendor/packaging/markers.py',
   'PYMODULE'),
  ('pkg_resources._vendor.packaging._structures',
   '/home/alex/.pyenv/versions/3.9.1/envs/venv/lib/python3.9/site-packages/pkg_resources/_vendor/packaging/_structures.py',
   'PYMODULE'),
  ('pkg_resources._vendor.packaging._compat',
   '/home/alex/.pyenv/versions/3.9.1/envs/venv/lib/python3.9/site-packages/pkg_resources/_vendor/packaging/_compat.py',
   'PYMODULE'),
  ('pkg_resources._vendor.packaging.__about__',
   '/home/alex/.pyenv/versions/3.9.1/envs/venv/lib/python3.9/site-packages/pkg_resources/_vendor/packaging/__about__.py',
   'PYMODULE'),
  ('pkg_resources._vendor.packaging',
   '/home/alex/.pyenv/versions/3.9.1/envs/venv/lib/python3.9/site-packages/pkg_resources/_vendor/packaging/__init__.py',
   'PYMODULE'),
  ('pkg_resources._vendor.appdirs',
   '/home/alex/.pyenv/versions/3.9.1/envs/venv/lib/python3.9/site-packages/pkg_resources/_vendor/appdirs.py',
   'PYMODULE'),
  ('pkg_resources._vendor',
   '/home/alex/.pyenv/versions/3.9.1/envs/venv/lib/python3.9/site-packages/pkg_resources/_vendor/__init__.py',
   'PYMODULE'),
  ('sysconfig',
   '/home/alex/.pyenv/versions/3.9.1/lib/python3.9/sysconfig.py',
   'PYMODULE'),
  ('importlib.machinery',
   '/home/alex/.pyenv/versions/3.9.1/lib/python3.9/importlib/machinery.py',
   'PYMODULE'),
  ('pkg_resources.extern',
   '/home/alex/.pyenv/versions/3.9.1/envs/venv/lib/python3.9/site-packages/pkg_resources/extern/__init__.py',
   'PYMODULE'),
  ('imp', '/home/alex/.pyenv/versions/3.9.1/lib/python3.9/imp.py', 'PYMODULE'),
  ('inspect',
   '/home/alex/.pyenv/versions/3.9.1/lib/python3.9/inspect.py',
   'PYMODULE'),
  ('ast', '/home/alex/.pyenv/versions/3.9.1/lib/python3.9/ast.py', 'PYMODULE'),
  ('textwrap',
   '/home/alex/.pyenv/versions/3.9.1/lib/python3.9/textwrap.py',
   'PYMODULE'),
  ('tempfile',
   '/home/alex/.pyenv/versions/3.9.1/lib/python3.9/tempfile.py',
   'PYMODULE'),
  ('email.parser',
   '/home/alex/.pyenv/versions/3.9.1/lib/python3.9/email/parser.py',
   'PYMODULE'),
  ('email.feedparser',
   '/home/alex/.pyenv/versions/3.9.1/lib/python3.9/email/feedparser.py',
   'PYMODULE'),
  ('plistlib',
   '/home/alex/.pyenv/versions/3.9.1/lib/python3.9/plistlib.py',
   'PYMODULE'),
  ('xml.parsers.expat',
   '/home/alex/.pyenv/versions/3.9.1/lib/python3.9/xml/parsers/expat.py',
   'PYMODULE'),
  ('xml.parsers',
   '/home/alex/.pyenv/versions/3.9.1/lib/python3.9/xml/parsers/__init__.py',
   'PYMODULE'),
  ('xml',
   '/home/alex/.pyenv/versions/3.9.1/lib/python3.9/xml/__init__.py',
   'PYMODULE'),
  ('xml.sax.expatreader',
   '/home/alex/.pyenv/versions/3.9.1/lib/python3.9/xml/sax/expatreader.py',
   'PYMODULE'),
  ('xml.sax.saxutils',
   '/home/alex/.pyenv/versions/3.9.1/lib/python3.9/xml/sax/saxutils.py',
   'PYMODULE'),
  ('xml.sax',
   '/home/alex/.pyenv/versions/3.9.1/lib/python3.9/xml/sax/__init__.py',
   'PYMODULE'),
  ('xml.sax.handler',
   '/home/alex/.pyenv/versions/3.9.1/lib/python3.9/xml/sax/handler.py',
   'PYMODULE'),
  ('xml.sax._exceptions',
   '/home/alex/.pyenv/versions/3.9.1/lib/python3.9/xml/sax/_exceptions.py',
   'PYMODULE'),
  ('xml.sax.xmlreader',
   '/home/alex/.pyenv/versions/3.9.1/lib/python3.9/xml/sax/xmlreader.py',
   'PYMODULE'),
  ('platform',
   '/home/alex/.pyenv/versions/3.9.1/lib/python3.9/platform.py',
   'PYMODULE'),
  ('pkgutil',
   '/home/alex/.pyenv/versions/3.9.1/lib/python3.9/pkgutil.py',
   'PYMODULE'),
  ('zipimport',
   '/home/alex/.pyenv/versions/3.9.1/lib/python3.9/zipimport.py',
   'PYMODULE'),
  ('zipfile',
   '/home/alex/.pyenv/versions/3.9.1/lib/python3.9/zipfile.py',
   'PYMODULE'),
  ('__future__',
   '/home/alex/.pyenv/versions/3.9.1/lib/python3.9/__future__.py',
   'PYMODULE'),
  ('multiprocessing.popen_spawn_posix',
   '/home/alex/.pyenv/versions/3.9.1/lib/python3.9/multiprocessing/popen_spawn_posix.py',
   'PYMODULE'),
  ('multiprocessing.resource_tracker',
   '/home/alex/.pyenv/versions/3.9.1/lib/python3.9/multiprocessing/resource_tracker.py',
   'PYMODULE'),
  ('multiprocessing.util',
   '/home/alex/.pyenv/versions/3.9.1/lib/python3.9/multiprocessing/util.py',
   'PYMODULE'),
  ('multiprocessing.forkserver',
   '/home/alex/.pyenv/versions/3.9.1/lib/python3.9/multiprocessing/forkserver.py',
   'PYMODULE'),
  ('multiprocessing.connection',
   '/home/alex/.pyenv/versions/3.9.1/lib/python3.9/multiprocessing/connection.py',
   'PYMODULE'),
  ('multiprocessing.resource_sharer',
   '/home/alex/.pyenv/versions/3.9.1/lib/python3.9/multiprocessing/resource_sharer.py',
   'PYMODULE'),
  ('xmlrpc.client',
   '/home/alex/.pyenv/versions/3.9.1/lib/python3.9/xmlrpc/client.py',
   'PYMODULE'),
  ('xmlrpc',
   '/home/alex/.pyenv/versions/3.9.1/lib/python3.9/xmlrpc/__init__.py',
   'PYMODULE'),
  ('hmac',
   '/home/alex/.pyenv/versions/3.9.1/lib/python3.9/hmac.py',
   'PYMODULE'),
  ('multiprocessing.process',
   '/home/alex/.pyenv/versions/3.9.1/lib/python3.9/multiprocessing/process.py',
   'PYMODULE'),
  ('multiprocessing.context',
   '/home/alex/.pyenv/versions/3.9.1/lib/python3.9/multiprocessing/context.py',
   'PYMODULE'),
  ('multiprocessing.popen_forkserver',
   '/home/alex/.pyenv/versions/3.9.1/lib/python3.9/multiprocessing/popen_forkserver.py',
   'PYMODULE'),
  ('multiprocessing.sharedctypes',
   '/home/alex/.pyenv/versions/3.9.1/lib/python3.9/multiprocessing/sharedctypes.py',
   'PYMODULE'),
  ('multiprocessing.heap',
   '/home/alex/.pyenv/versions/3.9.1/lib/python3.9/multiprocessing/heap.py',
   'PYMODULE'),
  ('multiprocessing.pool',
   '/home/alex/.pyenv/versions/3.9.1/lib/python3.9/multiprocessing/pool.py',
   'PYMODULE'),
  ('multiprocessing.dummy',
   '/home/alex/.pyenv/versions/3.9.1/lib/python3.9/multiprocessing/dummy/__init__.py',
   'PYMODULE'),
  ('multiprocessing.dummy.connection',
   '/home/alex/.pyenv/versions/3.9.1/lib/python3.9/multiprocessing/dummy/connection.py',
   'PYMODULE'),
  ('queue',
   '/home/alex/.pyenv/versions/3.9.1/lib/python3.9/queue.py',
   'PYMODULE'),
  ('multiprocessing.queues',
   '/home/alex/.pyenv/versions/3.9.1/lib/python3.9/multiprocessing/queues.py',
   'PYMODULE'),
  ('multiprocessing.synchronize',
   '/home/alex/.pyenv/versions/3.9.1/lib/python3.9/multiprocessing/synchronize.py',
   'PYMODULE'),
  ('multiprocessing.managers',
   '/home/alex/.pyenv/versions/3.9.1/lib/python3.9/multiprocessing/managers.py',
   'PYMODULE'),
  ('multiprocessing.shared_memory',
   '/home/alex/.pyenv/versions/3.9.1/lib/python3.9/multiprocessing/shared_memory.py',
   'PYMODULE'),
  ('secrets',
   '/home/alex/.pyenv/versions/3.9.1/lib/python3.9/secrets.py',
   'PYMODULE'),
  ('multiprocessing.reduction',
   '/home/alex/.pyenv/versions/3.9.1/lib/python3.9/multiprocessing/reduction.py',
   'PYMODULE'),
  ('multiprocessing.popen_fork',
   '/home/alex/.pyenv/versions/3.9.1/lib/python3.9/multiprocessing/popen_fork.py',
   'PYMODULE'),
  ('multiprocessing.popen_spawn_win32',
   '/home/alex/.pyenv/versions/3.9.1/lib/python3.9/multiprocessing/popen_spawn_win32.py',
   'PYMODULE'),
  ('multiprocessing.spawn',
   '/home/alex/.pyenv/versions/3.9.1/lib/python3.9/multiprocessing/spawn.py',
   'PYMODULE'),
  ('multiprocessing',
   '/home/alex/.pyenv/versions/3.9.1/lib/python3.9/multiprocessing/__init__.py',
   'PYMODULE'),
  ('stringprep',
   '/home/alex/.pyenv/versions/3.9.1/lib/python3.9/stringprep.py',
   'PYMODULE'),
  ('tracemalloc',
   '/home/alex/.pyenv/versions/3.9.1/lib/python3.9/tracemalloc.py',
   'PYMODULE'),
  ('getpass',
   '/home/alex/.pyenv/versions/3.9.1/lib/python3.9/getpass.py',
   'PYMODULE'),
  ('nturl2path',
   '/home/alex/.pyenv/versions/3.9.1/lib/python3.9/nturl2path.py',
   'PYMODULE'),
  ('ftplib',
   '/home/alex/.pyenv/versions/3.9.1/lib/python3.9/ftplib.py',
   'PYMODULE'),
  ('netrc',
   '/home/alex/.pyenv/versions/3.9.1/lib/python3.9/netrc.py',
   'PYMODULE'),
  ('http.cookiejar',
   '/home/alex/.pyenv/versions/3.9.1/lib/python3.9/http/cookiejar.py',
   'PYMODULE'),
  ('_py_abc',
   '/home/alex/.pyenv/versions/3.9.1/lib/python3.9/_py_abc.py',
   'PYMODULE'),
  ('main', '/home/alex/PycharmProjects/check_rtsp./main.py', 'PYMODULE'),
  ('rtsp_client',
   '/home/alex/PycharmProjects/check_rtsp./rtsp_client.py',
   'PYMODULE'),
  ('validation',
   '/home/alex/PycharmProjects/check_rtsp./validation.py',
   'PYMODULE'),
  ('pandas',
   '/home/alex/.pyenv/versions/3.9.1/envs/venv/lib/python3.9/site-packages/pandas/__init__.py',
   'PYMODULE'),
  ('pandas._libs.window',
   '/home/alex/.pyenv/versions/3.9.1/envs/venv/lib/python3.9/site-packages/pandas/_libs/window/__init__.py',
   'PYMODULE'),
  ('pandas._libs.tslibs',
   '/home/alex/.pyenv/versions/3.9.1/envs/venv/lib/python3.9/site-packages/pandas/_libs/tslibs/__init__.py',
   'PYMODULE'),
  ('numpy',
   '/home/alex/.pyenv/versions/3.9.1/envs/venv/lib/python3.9/site-packages/numpy/__init__.py',
   'PYMODULE'),
  ('numpy.core._dtype_ctypes',
   '/home/alex/.pyenv/versions/3.9.1/envs/venv/lib/python3.9/site-packages/numpy/core/_dtype_ctypes.py',
   'PYMODULE'),
  ('numpy.version',
   '/home/alex/.pyenv/versions/3.9.1/envs/venv/lib/python3.9/site-packages/numpy/version.py',
   'PYMODULE'),
  ('numpy._version',
   '/home/alex/.pyenv/versions/3.9.1/envs/venv/lib/python3.9/site-packages/numpy/_version.py',
   'PYMODULE'),
  ('json',
   '/home/alex/.pyenv/versions/3.9.1/lib/python3.9/json/__init__.py',
   'PYMODULE'),
  ('json.encoder',
   '/home/alex/.pyenv/versions/3.9.1/lib/python3.9/json/encoder.py',
   'PYMODULE'),
  ('json.decoder',
   '/home/alex/.pyenv/versions/3.9.1/lib/python3.9/json/decoder.py',
   'PYMODULE'),
  ('json.scanner',
   '/home/alex/.pyenv/versions/3.9.1/lib/python3.9/json/scanner.py',
   'PYMODULE'),
  ('numpy._pytesttester',
   '/home/alex/.pyenv/versions/3.9.1/envs/venv/lib/python3.9/site-packages/numpy/_pytesttester.py',
   'PYMODULE'),
  ('numpy.testing',
   '/home/alex/.pyenv/versions/3.9.1/envs/venv/lib/python3.9/site-packages/numpy/testing/__init__.py',
   'PYMODULE'),
  ('numpy.testing._private.nosetester',
   '/home/alex/.pyenv/versions/3.9.1/envs/venv/lib/python3.9/site-packages/numpy/testing/_private/nosetester.py',
   'PYMODULE'),
  ('doctest',
   '/home/alex/.pyenv/versions/3.9.1/lib/python3.9/doctest.py',
   'PYMODULE'),
  ('difflib',
   '/home/alex/.pyenv/versions/3.9.1/lib/python3.9/difflib.py',
   'PYMODULE'),
  ('numpy.testing._private.noseclasses',
   '/home/alex/.pyenv/versions/3.9.1/envs/venv/lib/python3.9/site-packages/numpy/testing/_private/noseclasses.py',
   'PYMODULE'),
  ('numpy.testing._private.decorators',
   '/home/alex/.pyenv/versions/3.9.1/envs/venv/lib/python3.9/site-packages/numpy/testing/_private/decorators.py',
   'PYMODULE'),
  ('numpy.testing._private.parameterized',
   '/home/alex/.pyenv/versions/3.9.1/envs/venv/lib/python3.9/site-packages/numpy/testing/_private/parameterized.py',
   'PYMODULE'),
  ('numpy.testing._private.extbuild',
   '/home/alex/.pyenv/versions/3.9.1/envs/venv/lib/python3.9/site-packages/numpy/testing/_private/extbuild.py',
   'PYMODULE'),
  ('numpy.testing._private.utils',
   '/home/alex/.pyenv/versions/3.9.1/envs/venv/lib/python3.9/site-packages/numpy/testing/_private/utils.py',
   'PYMODULE'),
  ('numpy.core.fromnumeric',
   '/home/alex/.pyenv/versions/3.9.1/envs/venv/lib/python3.9/site-packages/numpy/core/fromnumeric.py',
   'PYMODULE'),
  ('numpy.core._methods',
   '/home/alex/.pyenv/versions/3.9.1/envs/venv/lib/python3.9/site-packages/numpy/core/_methods.py',
   'PYMODULE'),
  ('numpy.lib.stride_tricks',
   '/home/alex/.pyenv/versions/3.9.1/envs/venv/lib/python3.9/site-packages/numpy/lib/stride_tricks.py',
   'PYMODULE'),
  ('numpy.core.numeric',
   '/home/alex/.pyenv/versions/3.9.1/envs/venv/lib/python3.9/site-packages/numpy/core/numeric.py',
   'PYMODULE'),
  ('numpy.core._asarray',
   '/home/alex/.pyenv/versions/3.9.1/envs/venv/lib/python3.9/site-packages/numpy/core/_asarray.py',
   'PYMODULE'),
  ('numpy.core.arrayprint',
   '/home/alex/.pyenv/versions/3.9.1/envs/venv/lib/python3.9/site-packages/numpy/core/arrayprint.py',
   'PYMODULE'),
  ('numpy.core.shape_base',
   '/home/alex/.pyenv/versions/3.9.1/envs/venv/lib/python3.9/site-packages/numpy/core/shape_base.py',
   'PYMODULE'),
  ('numpy.core._ufunc_config',
   '/home/alex/.pyenv/versions/3.9.1/envs/venv/lib/python3.9/site-packages/numpy/core/_ufunc_config.py',
   'PYMODULE'),
  ('numpy.core._exceptions',
   '/home/alex/.pyenv/versions/3.9.1/envs/venv/lib/python3.9/site-packages/numpy/core/_exceptions.py',
   'PYMODULE'),
  ('numpy.core.umath',
   '/home/alex/.pyenv/versions/3.9.1/envs/venv/lib/python3.9/site-packages/numpy/core/umath.py',
   'PYMODULE'),
  ('numpy.core.overrides',
   '/home/alex/.pyenv/versions/3.9.1/envs/venv/lib/python3.9/site-packages/numpy/core/overrides.py',
   'PYMODULE'),
  ('numpy.compat._inspect',
   '/home/alex/.pyenv/versions/3.9.1/envs/venv/lib/python3.9/site-packages/numpy/compat/_inspect.py',
   'PYMODULE'),
  ('numpy.core.multiarray',
   '/home/alex/.pyenv/versions/3.9.1/envs/venv/lib/python3.9/site-packages/numpy/core/multiarray.py',
   'PYMODULE'),
  ('numpy.core.numerictypes',
   '/home/alex/.pyenv/versions/3.9.1/envs/venv/lib/python3.9/site-packages/numpy/core/numerictypes.py',
   'PYMODULE'),
  ('numpy.core._dtype',
   '/home/alex/.pyenv/versions/3.9.1/envs/venv/lib/python3.9/site-packages/numpy/core/_dtype.py',
   'PYMODULE'),
  ('numpy.core._type_aliases',
   '/home/alex/.pyenv/versions/3.9.1/envs/venv/lib/python3.9/site-packages/numpy/core/_type_aliases.py',
   'PYMODULE'),
  ('numpy.core._string_helpers',
   '/home/alex/.pyenv/versions/3.9.1/envs/venv/lib/python3.9/site-packages/numpy/core/_string_helpers.py',
   'PYMODULE'),
  ('unittest.case',
   '/home/alex/.pyenv/versions/3.9.1/lib/python3.9/unittest/case.py',
   'PYMODULE'),
  ('unittest._log',
   '/home/alex/.pyenv/versions/3.9.1/lib/python3.9/unittest/_log.py',
   'PYMODULE'),
  ('unittest.util',
   '/home/alex/.pyenv/versions/3.9.1/lib/python3.9/unittest/util.py',
   'PYMODULE'),
  ('unittest.result',
   '/home/alex/.pyenv/versions/3.9.1/lib/python3.9/unittest/result.py',
   'PYMODULE'),
  ('numpy.testing._private',
   '/home/alex/.pyenv/versions/3.9.1/envs/venv/lib/python3.9/site-packages/numpy/testing/_private/__init__.py',
   'PYMODULE'),
  ('unittest',
   '/home/alex/.pyenv/versions/3.9.1/lib/python3.9/unittest/__init__.py',
   'PYMODULE'),
  ('unittest.async_case',
   '/home/alex/.pyenv/versions/3.9.1/lib/python3.9/unittest/async_case.py',
   'PYMODULE'),
  ('asyncio',
   '/home/alex/.pyenv/versions/3.9.1/lib/python3.9/asyncio/__init__.py',
   'PYMODULE'),
  ('asyncio.unix_events',
   '/home/alex/.pyenv/versions/3.9.1/lib/python3.9/asyncio/unix_events.py',
   'PYMODULE'),
  ('asyncio.log',
   '/home/alex/.pyenv/versions/3.9.1/lib/python3.9/asyncio/log.py',
   'PYMODULE'),
  ('asyncio.windows_events',
   '/home/alex/.pyenv/versions/3.9.1/lib/python3.9/asyncio/windows_events.py',
   'PYMODULE'),
  ('asyncio.windows_utils',
   '/home/alex/.pyenv/versions/3.9.1/lib/python3.9/asyncio/windows_utils.py',
   'PYMODULE'),
  ('asyncio.selector_events',
   '/home/alex/.pyenv/versions/3.9.1/lib/python3.9/asyncio/selector_events.py',
   'PYMODULE'),
  ('asyncio.proactor_events',
   '/home/alex/.pyenv/versions/3.9.1/lib/python3.9/asyncio/proactor_events.py',
   'PYMODULE'),
  ('asyncio.base_subprocess',
   '/home/alex/.pyenv/versions/3.9.1/lib/python3.9/asyncio/base_subprocess.py',
   'PYMODULE'),
  ('asyncio.threads',
   '/home/alex/.pyenv/versions/3.9.1/lib/python3.9/asyncio/threads.py',
   'PYMODULE'),
  ('asyncio.subprocess',
   '/home/alex/.pyenv/versions/3.9.1/lib/python3.9/asyncio/subprocess.py',
   'PYMODULE'),
  ('asyncio.streams',
   '/home/alex/.pyenv/versions/3.9.1/lib/python3.9/asyncio/streams.py',
   'PYMODULE'),
  ('asyncio.queues',
   '/home/alex/.pyenv/versions/3.9.1/lib/python3.9/asyncio/queues.py',
   'PYMODULE'),
  ('asyncio.runners',
   '/home/alex/.pyenv/versions/3.9.1/lib/python3.9/asyncio/runners.py',
   'PYMODULE'),
  ('asyncio.base_events',
   '/home/alex/.pyenv/versions/3.9.1/lib/python3.9/asyncio/base_events.py',
   'PYMODULE'),
  ('concurrent.futures',
   '/home/alex/.pyenv/versions/3.9.1/lib/python3.9/concurrent/futures/__init__.py',
   'PYMODULE'),
  ('concurrent.futures.thread',
   '/home/alex/.pyenv/versions/3.9.1/lib/python3.9/concurrent/futures/thread.py',
   'PYMODULE'),
  ('concurrent.futures.process',
   '/home/alex/.pyenv/versions/3.9.1/lib/python3.9/concurrent/futures/process.py',
   'PYMODULE'),
  ('concurrent.futures._base',
   '/home/alex/.pyenv/versions/3.9.1/lib/python3.9/concurrent/futures/_base.py',
   'PYMODULE'),
  ('concurrent',
   '/home/alex/.pyenv/versions/3.9.1/lib/python3.9/concurrent/__init__.py',
   'PYMODULE'),
  ('asyncio.trsock',
   '/home/alex/.pyenv/versions/3.9.1/lib/python3.9/asyncio/trsock.py',
   'PYMODULE'),
  ('asyncio.staggered',
   '/home/alex/.pyenv/versions/3.9.1/lib/python3.9/asyncio/staggered.py',
   'PYMODULE'),
  ('asyncio.tasks',
   '/home/alex/.pyenv/versions/3.9.1/lib/python3.9/asyncio/tasks.py',
   'PYMODULE'),
  ('asyncio.base_tasks',
   '/home/alex/.pyenv/versions/3.9.1/lib/python3.9/asyncio/base_tasks.py',
   'PYMODULE'),
  ('asyncio.locks',
   '/home/alex/.pyenv/versions/3.9.1/lib/python3.9/asyncio/locks.py',
   'PYMODULE'),
  ('asyncio.sslproto',
   '/home/alex/.pyenv/versions/3.9.1/lib/python3.9/asyncio/sslproto.py',
   'PYMODULE'),
  ('asyncio.transports',
   '/home/alex/.pyenv/versions/3.9.1/lib/python3.9/asyncio/transports.py',
   'PYMODULE'),
  ('asyncio.protocols',
   '/home/alex/.pyenv/versions/3.9.1/lib/python3.9/asyncio/protocols.py',
   'PYMODULE'),
  ('asyncio.futures',
   '/home/alex/.pyenv/versions/3.9.1/lib/python3.9/asyncio/futures.py',
   'PYMODULE'),
  ('asyncio.exceptions',
   '/home/alex/.pyenv/versions/3.9.1/lib/python3.9/asyncio/exceptions.py',
   'PYMODULE'),
  ('asyncio.events',
   '/home/alex/.pyenv/versions/3.9.1/lib/python3.9/asyncio/events.py',
   'PYMODULE'),
  ('asyncio.coroutines',
   '/home/alex/.pyenv/versions/3.9.1/lib/python3.9/asyncio/coroutines.py',
   'PYMODULE'),
  ('asyncio.base_futures',
   '/home/alex/.pyenv/versions/3.9.1/lib/python3.9/asyncio/base_futures.py',
   'PYMODULE'),
  ('asyncio.format_helpers',
   '/home/alex/.pyenv/versions/3.9.1/lib/python3.9/asyncio/format_helpers.py',
   'PYMODULE'),
  ('asyncio.constants',
   '/home/alex/.pyenv/versions/3.9.1/lib/python3.9/asyncio/constants.py',
   'PYMODULE'),
  ('unittest.signals',
   '/home/alex/.pyenv/versions/3.9.1/lib/python3.9/unittest/signals.py',
   'PYMODULE'),
  ('unittest.main',
   '/home/alex/.pyenv/versions/3.9.1/lib/python3.9/unittest/main.py',
   'PYMODULE'),
  ('unittest.runner',
   '/home/alex/.pyenv/versions/3.9.1/lib/python3.9/unittest/runner.py',
   'PYMODULE'),
  ('unittest.loader',
   '/home/alex/.pyenv/versions/3.9.1/lib/python3.9/unittest/loader.py',
   'PYMODULE'),
  ('unittest.suite',
   '/home/alex/.pyenv/versions/3.9.1/lib/python3.9/unittest/suite.py',
   'PYMODULE'),
  ('numpy.matrixlib',
   '/home/alex/.pyenv/versions/3.9.1/envs/venv/lib/python3.9/site-packages/numpy/matrixlib/__init__.py',
   'PYMODULE'),
  ('numpy.matrixlib.defmatrix',
   '/home/alex/.pyenv/versions/3.9.1/envs/venv/lib/python3.9/site-packages/numpy/matrixlib/defmatrix.py',
   'PYMODULE'),
  ('numpy.ma',
   '/home/alex/.pyenv/versions/3.9.1/envs/venv/lib/python3.9/site-packages/numpy/ma/__init__.py',
   'PYMODULE'),
  ('numpy.ma.extras',
   '/home/alex/.pyenv/versions/3.9.1/envs/venv/lib/python3.9/site-packages/numpy/ma/extras.py',
   'PYMODULE'),
  ('numpy.lib.index_tricks',
   '/home/alex/.pyenv/versions/3.9.1/envs/venv/lib/python3.9/site-packages/numpy/lib/index_tricks.py',
   'PYMODULE'),
  ('numpy.lib.function_base',
   '/home/alex/.pyenv/versions/3.9.1/envs/venv/lib/python3.9/site-packages/numpy/lib/function_base.py',
   'PYMODULE'),
  ('numpy.lib.histograms',
   '/home/alex/.pyenv/versions/3.9.1/envs/venv/lib/python3.9/site-packages/numpy/lib/histograms.py',
   'PYMODULE'),
  ('numpy.lib.twodim_base',
   '/home/alex/.pyenv/versions/3.9.1/envs/venv/lib/python3.9/site-packages/numpy/lib/twodim_base.py',
   'PYMODULE'),
  ('numpy.core.function_base',
   '/home/alex/.pyenv/versions/3.9.1/envs/venv/lib/python3.9/site-packages/numpy/core/function_base.py',
   'PYMODULE'),
  ('numpy.ma.core',
   '/home/alex/.pyenv/versions/3.9.1/envs/venv/lib/python3.9/site-packages/numpy/ma/core.py',
   'PYMODULE'),
  ('numpy.ctypeslib',
   '/home/alex/.pyenv/versions/3.9.1/envs/venv/lib/python3.9/site-packages/numpy/ctypeslib.py',
   'PYMODULE'),
  ('numpy.core._internal',
   '/home/alex/.pyenv/versions/3.9.1/envs/venv/lib/python3.9/site-packages/numpy/core/_internal.py',
   'PYMODULE'),
  ('numpy.random',
   '/home/alex/.pyenv/versions/3.9.1/envs/venv/lib/python3.9/site-packages/numpy/random/__init__.py',
   'PYMODULE'),
  ('numpy.random._pickle',
   '/home/alex/.pyenv/versions/3.9.1/envs/venv/lib/python3.9/site-packages/numpy/random/_pickle.py',
   'PYMODULE'),
  ('numpy.polynomial',
   '/home/alex/.pyenv/versions/3.9.1/envs/venv/lib/python3.9/site-packages/numpy/polynomial/__init__.py',
   'PYMODULE'),
  ('numpy.polynomial._polybase',
   '/home/alex/.pyenv/versions/3.9.1/envs/venv/lib/python3.9/site-packages/numpy/polynomial/_polybase.py',
   'PYMODULE'),
  ('numpy.polynomial.laguerre',
   '/home/alex/.pyenv/versions/3.9.1/envs/venv/lib/python3.9/site-packages/numpy/polynomial/laguerre.py',
   'PYMODULE'),
  ('numpy.polynomial.hermite_e',
   '/home/alex/.pyenv/versions/3.9.1/envs/venv/lib/python3.9/site-packages/numpy/polynomial/hermite_e.py',
   'PYMODULE'),
  ('numpy.polynomial.hermite',
   '/home/alex/.pyenv/versions/3.9.1/envs/venv/lib/python3.9/site-packages/numpy/polynomial/hermite.py',
   'PYMODULE'),
  ('numpy.polynomial.legendre',
   '/home/alex/.pyenv/versions/3.9.1/envs/venv/lib/python3.9/site-packages/numpy/polynomial/legendre.py',
   'PYMODULE'),
  ('numpy.polynomial.chebyshev',
   '/home/alex/.pyenv/versions/3.9.1/envs/venv/lib/python3.9/site-packages/numpy/polynomial/chebyshev.py',
   'PYMODULE'),
  ('numpy.polynomial.polynomial',
   '/home/alex/.pyenv/versions/3.9.1/envs/venv/lib/python3.9/site-packages/numpy/polynomial/polynomial.py',
   'PYMODULE'),
  ('numpy.polynomial.polyutils',
   '/home/alex/.pyenv/versions/3.9.1/envs/venv/lib/python3.9/site-packages/numpy/polynomial/polyutils.py',
   'PYMODULE'),
  ('numpy.fft',
   '/home/alex/.pyenv/versions/3.9.1/envs/venv/lib/python3.9/site-packages/numpy/fft/__init__.py',
   'PYMODULE'),
  ('numpy.fft.helper',
   '/home/alex/.pyenv/versions/3.9.1/envs/venv/lib/python3.9/site-packages/numpy/fft/helper.py',
   'PYMODULE'),
  ('numpy.fft._pocketfft',
   '/home/alex/.pyenv/versions/3.9.1/envs/venv/lib/python3.9/site-packages/numpy/fft/_pocketfft.py',
   'PYMODULE'),
  ('numpy.linalg',
   '/home/alex/.pyenv/versions/3.9.1/envs/venv/lib/python3.9/site-packages/numpy/linalg/__init__.py',
   'PYMODULE'),
  ('numpy.linalg.linalg',
   '/home/alex/.pyenv/versions/3.9.1/envs/venv/lib/python3.9/site-packages/numpy/linalg/linalg.py',
   'PYMODULE'),
  ('numpy.lib',
   '/home/alex/.pyenv/versions/3.9.1/envs/venv/lib/python3.9/site-packages/numpy/lib/__init__.py',
   'PYMODULE'),
  ('numpy.lib._version',
   '/home/alex/.pyenv/versions/3.9.1/envs/venv/lib/python3.9/site-packages/numpy/lib/_version.py',
   'PYMODULE'),
  ('numpy.lib.arraypad',
   '/home/alex/.pyenv/versions/3.9.1/envs/venv/lib/python3.9/site-packages/numpy/lib/arraypad.py',
   'PYMODULE'),
  ('numpy.lib.arrayterator',
   '/home/alex/.pyenv/versions/3.9.1/envs/venv/lib/python3.9/site-packages/numpy/lib/arrayterator.py',
   'PYMODULE'),
  ('numpy.lib.npyio',
   '/home/alex/.pyenv/versions/3.9.1/envs/venv/lib/python3.9/site-packages/numpy/lib/npyio.py',
   'PYMODULE'),
  ('numpy.ma.mrecords',
   '/home/alex/.pyenv/versions/3.9.1/envs/venv/lib/python3.9/site-packages/numpy/ma/mrecords.py',
   'PYMODULE'),
  ('numpy.core.records',
   '/home/alex/.pyenv/versions/3.9.1/envs/venv/lib/python3.9/site-packages/numpy/core/records.py',
   'PYMODULE'),
  ('numpy.lib._iotools',
   '/home/alex/.pyenv/versions/3.9.1/envs/venv/lib/python3.9/site-packages/numpy/lib/_iotools.py',
   'PYMODULE'),
  ('numpy.lib._datasource',
   '/home/alex/.pyenv/versions/3.9.1/envs/venv/lib/python3.9/site-packages/numpy/lib/_datasource.py',
   'PYMODULE'),
  ('numpy.lib.format',
   '/home/alex/.pyenv/versions/3.9.1/envs/venv/lib/python3.9/site-packages/numpy/lib/format.py',
   'PYMODULE'),
  ('numpy.lib.arraysetops',
   '/home/alex/.pyenv/versions/3.9.1/envs/venv/lib/python3.9/site-packages/numpy/lib/arraysetops.py',
   'PYMODULE'),
  ('numpy.lib.utils',
   '/home/alex/.pyenv/versions/3.9.1/envs/venv/lib/python3.9/site-packages/numpy/lib/utils.py',
   'PYMODULE'),
  ('numpy.lib.polynomial',
   '/home/alex/.pyenv/versions/3.9.1/envs/venv/lib/python3.9/site-packages/numpy/lib/polynomial.py',
   'PYMODULE'),
  ('numpy.lib.ufunclike',
   '/home/alex/.pyenv/versions/3.9.1/envs/venv/lib/python3.9/site-packages/numpy/lib/ufunclike.py',
   'PYMODULE'),
  ('numpy.lib.shape_base',
   '/home/alex/.pyenv/versions/3.9.1/envs/venv/lib/python3.9/site-packages/numpy/lib/shape_base.py',
   'PYMODULE'),
  ('numpy.lib.nanfunctions',
   '/home/alex/.pyenv/versions/3.9.1/envs/venv/lib/python3.9/site-packages/numpy/lib/nanfunctions.py',
   'PYMODULE'),
  ('numpy.lib.type_check',
   '/home/alex/.pyenv/versions/3.9.1/envs/venv/lib/python3.9/site-packages/numpy/lib/type_check.py',
   'PYMODULE'),
  ('numpy.core.getlimits',
   '/home/alex/.pyenv/versions/3.9.1/envs/venv/lib/python3.9/site-packages/numpy/core/getlimits.py',
   'PYMODULE'),
  ('numpy.core._machar',
   '/home/alex/.pyenv/versions/3.9.1/envs/venv/lib/python3.9/site-packages/numpy/core/_machar.py',
   'PYMODULE'),
  ('numpy.lib.scimath',
   '/home/alex/.pyenv/versions/3.9.1/envs/venv/lib/python3.9/site-packages/numpy/lib/scimath.py',
   'PYMODULE'),
  ('numpy.lib.mixins',
   '/home/alex/.pyenv/versions/3.9.1/envs/venv/lib/python3.9/site-packages/numpy/lib/mixins.py',
   'PYMODULE'),
  ('numpy.compat',
   '/home/alex/.pyenv/versions/3.9.1/envs/venv/lib/python3.9/site-packages/numpy/compat/__init__.py',
   'PYMODULE'),
  ('numpy.compat.py3k',
   '/home/alex/.pyenv/versions/3.9.1/envs/venv/lib/python3.9/site-packages/numpy/compat/py3k.py',
   'PYMODULE'),
  ('numpy.core',
   '/home/alex/.pyenv/versions/3.9.1/envs/venv/lib/python3.9/site-packages/numpy/core/__init__.py',
   'PYMODULE'),
  ('numpy.core._add_newdocs_scalars',
   '/home/alex/.pyenv/versions/3.9.1/envs/venv/lib/python3.9/site-packages/numpy/core/_add_newdocs_scalars.py',
   'PYMODULE'),
  ('numpy.core._add_newdocs',
   '/home/alex/.pyenv/versions/3.9.1/envs/venv/lib/python3.9/site-packages/numpy/core/_add_newdocs.py',
   'PYMODULE'),
  ('numpy.core.einsumfunc',
   '/home/alex/.pyenv/versions/3.9.1/envs/venv/lib/python3.9/site-packages/numpy/core/einsumfunc.py',
   'PYMODULE'),
  ('numpy.core.memmap',
   '/home/alex/.pyenv/versions/3.9.1/envs/venv/lib/python3.9/site-packages/numpy/core/memmap.py',
   'PYMODULE'),
  ('numpy.core.defchararray',
   '/home/alex/.pyenv/versions/3.9.1/envs/venv/lib/python3.9/site-packages/numpy/core/defchararray.py',
   'PYMODULE'),
  ('numpy._distributor_init',
   '/home/alex/.pyenv/versions/3.9.1/envs/venv/lib/python3.9/site-packages/numpy/_distributor_init.py',
   'PYMODULE'),
  ('numpy.__config__',
   '/home/alex/.pyenv/versions/3.9.1/envs/venv/lib/python3.9/site-packages/numpy/__config__.py',
   'PYMODULE'),
  ('numpy.array_api',
   '/home/alex/.pyenv/versions/3.9.1/envs/venv/lib/python3.9/site-packages/numpy/array_api/__init__.py',
   'PYMODULE'),
  ('numpy.array_api._utility_functions',
   '/home/alex/.pyenv/versions/3.9.1/envs/venv/lib/python3.9/site-packages/numpy/array_api/_utility_functions.py',
   'PYMODULE'),
  ('numpy.array_api._array_object',
   '/home/alex/.pyenv/versions/3.9.1/envs/venv/lib/python3.9/site-packages/numpy/array_api/_array_object.py',
   'PYMODULE'),
  ('numpy.typing',
   '/home/alex/.pyenv/versions/3.9.1/envs/venv/lib/python3.9/site-packages/numpy/typing/__init__.py',
   'PYMODULE'),
  ('numpy._typing._add_docstring',
   '/home/alex/.pyenv/versions/3.9.1/envs/venv/lib/python3.9/site-packages/numpy/_typing/_add_docstring.py',
   'PYMODULE'),
  ('numpy._typing._generic_alias',
   '/home/alex/.pyenv/versions/3.9.1/envs/venv/lib/python3.9/site-packages/numpy/_typing/_generic_alias.py',
   'PYMODULE'),
  ('numpy._typing',
   '/home/alex/.pyenv/versions/3.9.1/envs/venv/lib/python3.9/site-packages/numpy/_typing/__init__.py',
   'PYMODULE'),
  ('numpy._typing._array_like',
   '/home/alex/.pyenv/versions/3.9.1/envs/venv/lib/python3.9/site-packages/numpy/_typing/_array_like.py',
   'PYMODULE'),
  ('numpy._typing._dtype_like',
   '/home/alex/.pyenv/versions/3.9.1/envs/venv/lib/python3.9/site-packages/numpy/_typing/_dtype_like.py',
   'PYMODULE'),
  ('numpy._typing._shape',
   '/home/alex/.pyenv/versions/3.9.1/envs/venv/lib/python3.9/site-packages/numpy/_typing/_shape.py',
   'PYMODULE'),
  ('numpy._typing._scalars',
   '/home/alex/.pyenv/versions/3.9.1/envs/venv/lib/python3.9/site-packages/numpy/_typing/_scalars.py',
   'PYMODULE'),
  ('numpy._typing._char_codes',
   '/home/alex/.pyenv/versions/3.9.1/envs/venv/lib/python3.9/site-packages/numpy/_typing/_char_codes.py',
   'PYMODULE'),
  ('numpy._typing._nbit',
   '/home/alex/.pyenv/versions/3.9.1/envs/venv/lib/python3.9/site-packages/numpy/_typing/_nbit.py',
   'PYMODULE'),
  ('numpy._typing._nested_sequence',
   '/home/alex/.pyenv/versions/3.9.1/envs/venv/lib/python3.9/site-packages/numpy/_typing/_nested_sequence.py',
   'PYMODULE'),
  ('numpy.array_api._typing',
   '/home/alex/.pyenv/versions/3.9.1/envs/venv/lib/python3.9/site-packages/numpy/array_api/_typing.py',
   'PYMODULE'),
  ('numpy.array_api._statistical_functions',
   '/home/alex/.pyenv/versions/3.9.1/envs/venv/lib/python3.9/site-packages/numpy/array_api/_statistical_functions.py',
   'PYMODULE'),
  ('numpy.array_api._sorting_functions',
   '/home/alex/.pyenv/versions/3.9.1/envs/venv/lib/python3.9/site-packages/numpy/array_api/_sorting_functions.py',
   'PYMODULE'),
  ('numpy.array_api._set_functions',
   '/home/alex/.pyenv/versions/3.9.1/envs/venv/lib/python3.9/site-packages/numpy/array_api/_set_functions.py',
   'PYMODULE'),
  ('numpy.array_api._searching_functions',
   '/home/alex/.pyenv/versions/3.9.1/envs/venv/lib/python3.9/site-packages/numpy/array_api/_searching_functions.py',
   'PYMODULE'),
  ('numpy.array_api._manipulation_functions',
   '/home/alex/.pyenv/versions/3.9.1/envs/venv/lib/python3.9/site-packages/numpy/array_api/_manipulation_functions.py',
   'PYMODULE'),
  ('numpy.array_api.linalg',
   '/home/alex/.pyenv/versions/3.9.1/envs/venv/lib/python3.9/site-packages/numpy/array_api/linalg.py',
   'PYMODULE'),
  ('numpy.array_api._elementwise_functions',
   '/home/alex/.pyenv/versions/3.9.1/envs/venv/lib/python3.9/site-packages/numpy/array_api/_elementwise_functions.py',
   'PYMODULE'),
  ('numpy.array_api._dtypes',
   '/home/alex/.pyenv/versions/3.9.1/envs/venv/lib/python3.9/site-packages/numpy/array_api/_dtypes.py',
   'PYMODULE'),
  ('numpy.array_api._data_type_functions',
   '/home/alex/.pyenv/versions/3.9.1/envs/venv/lib/python3.9/site-packages/numpy/array_api/_data_type_functions.py',
   'PYMODULE'),
  ('dataclasses',
   '/home/alex/.pyenv/versions/3.9.1/lib/python3.9/dataclasses.py',
   'PYMODULE'),
  ('numpy.array_api._creation_functions',
   '/home/alex/.pyenv/versions/3.9.1/envs/venv/lib/python3.9/site-packages/numpy/array_api/_creation_functions.py',
   'PYMODULE'),
  ('numpy.array_api._constants',
   '/home/alex/.pyenv/versions/3.9.1/envs/venv/lib/python3.9/site-packages/numpy/array_api/_constants.py',
   'PYMODULE'),
  ('numpy._globals',
   '/home/alex/.pyenv/versions/3.9.1/envs/venv/lib/python3.9/site-packages/numpy/_globals.py',
   'PYMODULE'),
  ('pandas._version',
   '/home/alex/.pyenv/versions/3.9.1/envs/venv/lib/python3.9/site-packages/pandas/_version.py',
   'PYMODULE'),
  ('pandas.util._tester',
   '/home/alex/.pyenv/versions/3.9.1/envs/venv/lib/python3.9/site-packages/pandas/util/_tester.py',
   'PYMODULE'),
  ('pandas.util',
   '/home/alex/.pyenv/versions/3.9.1/envs/venv/lib/python3.9/site-packages/pandas/util/__init__.py',
   'PYMODULE'),
  ('pandas.util.testing',
   '/home/alex/.pyenv/versions/3.9.1/envs/venv/lib/python3.9/site-packages/pandas/util/testing.py',
   'PYMODULE'),
  ('pandas._testing',
   '/home/alex/.pyenv/versions/3.9.1/envs/venv/lib/python3.9/site-packages/pandas/_testing/__init__.py',
   'PYMODULE'),
  ('pandas.core.construction',
   '/home/alex/.pyenv/versions/3.9.1/envs/venv/lib/python3.9/site-packages/pandas/core/construction.py',
   'PYMODULE'),
  ('pandas.core.series',
   '/home/alex/.pyenv/versions/3.9.1/envs/venv/lib/python3.9/site-packages/pandas/core/series.py',
   'PYMODULE'),
  ('pandas.core.reshape.reshape',
   '/home/alex/.pyenv/versions/3.9.1/envs/venv/lib/python3.9/site-packages/pandas/core/reshape/reshape.py',
   'PYMODULE'),
  ('pandas.core.reshape',
   '/home/alex/.pyenv/versions/3.9.1/envs/venv/lib/python3.9/site-packages/pandas/core/reshape/__init__.py',
   'PYMODULE'),
  ('pandas.core.indexes.frozen',
   '/home/alex/.pyenv/versions/3.9.1/envs/venv/lib/python3.9/site-packages/pandas/core/indexes/frozen.py',
   'PYMODULE'),
  ('pandas.core.indexes',
   '/home/alex/.pyenv/versions/3.9.1/envs/venv/lib/python3.9/site-packages/pandas/core/indexes/__init__.py',
   'PYMODULE'),
  ('pandas.io.formats.printing',
   '/home/alex/.pyenv/versions/3.9.1/envs/venv/lib/python3.9/site-packages/pandas/io/formats/printing.py',
   'PYMODULE'),
  ('pandas.io.formats',
   '/home/alex/.pyenv/versions/3.9.1/envs/venv/lib/python3.9/site-packages/pandas/io/formats/__init__.py',
   'PYMODULE'),
  ('pandas.io.formats.style',
   '/home/alex/.pyenv/versions/3.9.1/envs/venv/lib/python3.9/site-packages/pandas/io/formats/style.py',
   'PYMODULE'),
  ('pandas.plotting._matplotlib.compat',
   '/home/alex/.pyenv/versions/3.9.1/envs/venv/lib/python3.9/site-packages/pandas/plotting/_matplotlib/compat.py',
   'PYMODULE'),
  ('pandas.plotting._matplotlib',
   '/home/alex/.pyenv/versions/3.9.1/envs/venv/lib/python3.9/site-packages/pandas/plotting/_matplotlib/__init__.py',
   'PYMODULE'),
  ('pandas.plotting._matplotlib.tools',
   '/home/alex/.pyenv/versions/3.9.1/envs/venv/lib/python3.9/site-packages/pandas/plotting/_matplotlib/tools.py',
   'PYMODULE'),
  ('pandas.plotting._matplotlib.misc',
   '/home/alex/.pyenv/versions/3.9.1/envs/venv/lib/python3.9/site-packages/pandas/plotting/_matplotlib/misc.py',
   'PYMODULE'),
  ('pandas.plotting._matplotlib.style',
   '/home/alex/.pyenv/versions/3.9.1/envs/venv/lib/python3.9/site-packages/pandas/plotting/_matplotlib/style.py',
   'PYMODULE'),
  ('pandas.plotting._matplotlib.hist',
   '/home/alex/.pyenv/versions/3.9.1/envs/venv/lib/python3.9/site-packages/pandas/plotting/_matplotlib/hist.py',
   'PYMODULE'),
  ('pandas.plotting._matplotlib.groupby',
   '/home/alex/.pyenv/versions/3.9.1/envs/venv/lib/python3.9/site-packages/pandas/plotting/_matplotlib/groupby.py',
   'PYMODULE'),
  ('pandas.plotting._matplotlib.core',
   '/home/alex/.pyenv/versions/3.9.1/envs/venv/lib/python3.9/site-packages/pandas/plotting/_matplotlib/core.py',
   'PYMODULE'),
  ('pandas.plotting._matplotlib.timeseries',
   '/home/alex/.pyenv/versions/3.9.1/envs/venv/lib/python3.9/site-packages/pandas/plotting/_matplotlib/timeseries.py',
   'PYMODULE'),
  ('pandas.tseries.frequencies',
   '/home/alex/.pyenv/versions/3.9.1/envs/venv/lib/python3.9/site-packages/pandas/tseries/frequencies.py',
   'PYMODULE'),
  ('pandas.plotting._matplotlib.converter',
   '/home/alex/.pyenv/versions/3.9.1/envs/venv/lib/python3.9/site-packages/pandas/plotting/_matplotlib/converter.py',
   'PYMODULE'),
  ('pandas.core.indexes.period',
   '/home/alex/.pyenv/versions/3.9.1/envs/venv/lib/python3.9/site-packages/pandas/core/indexes/period.py',
   'PYMODULE'),
  ('pandas.core.indexes.numeric',
   '/home/alex/.pyenv/versions/3.9.1/envs/venv/lib/python3.9/site-packages/pandas/core/indexes/numeric.py',
   'PYMODULE'),
  ('pandas.core.indexes.extension',
   '/home/alex/.pyenv/versions/3.9.1/envs/venv/lib/python3.9/site-packages/pandas/core/indexes/extension.py',
   'PYMODULE'),
  ('pandas.core.indexes.datetimelike',
   '/home/alex/.pyenv/versions/3.9.1/envs/venv/lib/python3.9/site-packages/pandas/core/indexes/datetimelike.py',
   'PYMODULE'),
  ('pandas.core.tools.timedeltas',
   '/home/alex/.pyenv/versions/3.9.1/envs/venv/lib/python3.9/site-packages/pandas/core/tools/timedeltas.py',
   'PYMODULE'),
  ('pandas.core.tools',
   '/home/alex/.pyenv/versions/3.9.1/envs/venv/lib/python3.9/site-packages/pandas/core/tools/__init__.py',
   'PYMODULE'),
  ('pandas.core.arrays.timedeltas',
   '/home/alex/.pyenv/versions/3.9.1/envs/venv/lib/python3.9/site-packages/pandas/core/arrays/timedeltas.py',
   'PYMODULE'),
  ('pandas.core.ops.common',
   '/home/alex/.pyenv/versions/3.9.1/envs/venv/lib/python3.9/site-packages/pandas/core/ops/common.py',
   'PYMODULE'),
  ('pandas.core.arrays._ranges',
   '/home/alex/.pyenv/versions/3.9.1/envs/venv/lib/python3.9/site-packages/pandas/core/arrays/_ranges.py',
   'PYMODULE'),
  ('pandas.core.dtypes.astype',
   '/home/alex/.pyenv/versions/3.9.1/envs/venv/lib/python3.9/site-packages/pandas/core/dtypes/astype.py',
   'PYMODULE'),
  ('pandas.core.dtypes',
   '/home/alex/.pyenv/versions/3.9.1/envs/venv/lib/python3.9/site-packages/pandas/core/dtypes/__init__.py',
   'PYMODULE'),
  ('pandas.core.indexes.range',
   '/home/alex/.pyenv/versions/3.9.1/envs/venv/lib/python3.9/site-packages/pandas/core/indexes/range.py',
   'PYMODULE'),
  ('pandas.core.arrays.datetimelike',
   '/home/alex/.pyenv/versions/3.9.1/envs/venv/lib/python3.9/site-packages/pandas/core/arrays/datetimelike.py',
   'PYMODULE'),
  ('pandas.core.arrays.datetimes',
   '/home/alex/.pyenv/versions/3.9.1/envs/venv/lib/python3.9/site-packages/pandas/core/arrays/datetimes.py',
   'PYMODULE'),
  ('pandas.core.ops.invalid',
   '/home/alex/.pyenv/versions/3.9.1/envs/venv/lib/python3.9/site-packages/pandas/core/ops/invalid.py',
   'PYMODULE'),
  ('pandas.core.arrays.integer',
   '/home/alex/.pyenv/versions/3.9.1/envs/venv/lib/python3.9/site-packages/pandas/core/arrays/integer.py',
   'PYMODULE'),
  ('pandas.core.arrays.numeric',
   '/home/alex/.pyenv/versions/3.9.1/envs/venv/lib/python3.9/site-packages/pandas/core/arrays/numeric.py',
   'PYMODULE'),
  ('pandas.core.tools.numeric',
   '/home/alex/.pyenv/versions/3.9.1/envs/venv/lib/python3.9/site-packages/pandas/core/tools/numeric.py',
   'PYMODULE'),
  ('pandas.core.arrays.arrow._arrow_utils',
   '/home/alex/.pyenv/versions/3.9.1/envs/venv/lib/python3.9/site-packages/pandas/core/arrays/arrow/_arrow_utils.py',
   'PYMODULE'),
  ('pandas.core.arrays.arrow',
   '/home/alex/.pyenv/versions/3.9.1/envs/venv/lib/python3.9/site-packages/pandas/core/arrays/arrow/__init__.py',
   'PYMODULE'),
  ('pandas.core.arrays.arrow.dtype',
   '/home/alex/.pyenv/versions/3.9.1/envs/venv/lib/python3.9/site-packages/pandas/core/arrays/arrow/dtype.py',
   'PYMODULE'),
  ('pandas.core.arrays.arrow.array',
   '/home/alex/.pyenv/versions/3.9.1/envs/venv/lib/python3.9/site-packages/pandas/core/arrays/arrow/array.py',
   'PYMODULE'),
  ('pandas.core.tools.times',
   '/home/alex/.pyenv/versions/3.9.1/envs/venv/lib/python3.9/site-packages/pandas/core/tools/times.py',
   'PYMODULE'),
  ('pandas.core.arrays.masked',
   '/home/alex/.pyenv/versions/3.9.1/envs/venv/lib/python3.9/site-packages/pandas/core/arrays/masked.py',
   'PYMODULE'),
  ('pandas.core.array_algos.quantile',
   '/home/alex/.pyenv/versions/3.9.1/envs/venv/lib/python3.9/site-packages/pandas/core/array_algos/quantile.py',
   'PYMODULE'),
  ('pandas.core.array_algos.masked_reductions',
   '/home/alex/.pyenv/versions/3.9.1/envs/venv/lib/python3.9/site-packages/pandas/core/array_algos/masked_reductions.py',
   'PYMODULE'),
  ('pandas.core.array_algos',
   '/home/alex/.pyenv/versions/3.9.1/envs/venv/lib/python3.9/site-packages/pandas/core/array_algos/__init__.py',
   'PYMODULE'),
  ('pandas.core.arrays.base',
   '/home/alex/.pyenv/versions/3.9.1/envs/venv/lib/python3.9/site-packages/pandas/core/arrays/base.py',
   'PYMODULE'),
  ('pandas.core.roperator',
   '/home/alex/.pyenv/versions/3.9.1/envs/venv/lib/python3.9/site-packages/pandas/core/roperator.py',
   'PYMODULE'),
  ('pandas.core.arraylike',
   '/home/alex/.pyenv/versions/3.9.1/envs/venv/lib/python3.9/site-packages/pandas/core/arraylike.py',
   'PYMODULE'),
  ('pandas.core.dtypes.concat',
   '/home/alex/.pyenv/versions/3.9.1/envs/venv/lib/python3.9/site-packages/pandas/core/dtypes/concat.py',
   'PYMODULE'),
  ('pandas.core.arrays.period',
   '/home/alex/.pyenv/versions/3.9.1/envs/venv/lib/python3.9/site-packages/pandas/core/arrays/period.py',
   'PYMODULE'),
  ('pandas.core.arrays.arrow.extension_types',
   '/home/alex/.pyenv/versions/3.9.1/envs/venv/lib/python3.9/site-packages/pandas/core/arrays/arrow/extension_types.py',
   'PYMODULE'),
  ('pandas.core.arrays.interval',
   '/home/alex/.pyenv/versions/3.9.1/envs/venv/lib/python3.9/site-packages/pandas/core/arrays/interval.py',
   'PYMODULE'),
  ('pandas.core.indexes.datetimes',
   '/home/alex/.pyenv/versions/3.9.1/envs/venv/lib/python3.9/site-packages/pandas/core/indexes/datetimes.py',
   'PYMODULE'),
  ('dateutil.parser',
   '/home/alex/.pyenv/versions/3.9.1/envs/venv/lib/python3.9/site-packages/dateutil/parser/__init__.py',
   'PYMODULE'),
  ('dateutil.parser.isoparser',
   '/home/alex/.pyenv/versions/3.9.1/envs/venv/lib/python3.9/site-packages/dateutil/parser/isoparser.py',
   'PYMODULE'),
  ('six',
   '/home/alex/.pyenv/versions/3.9.1/envs/venv/lib/python3.9/site-packages/six.py',
   'PYMODULE'),
  ('dateutil.tz',
   '/home/alex/.pyenv/versions/3.9.1/envs/venv/lib/python3.9/site-packages/dateutil/tz/__init__.py',
   'PYMODULE'),
  ('dateutil.tz.tz',
   '/home/alex/.pyenv/versions/3.9.1/envs/venv/lib/python3.9/site-packages/dateutil/tz/tz.py',
   'PYMODULE'),
  ('dateutil.zoneinfo',
   '/home/alex/.pyenv/versions/3.9.1/envs/venv/lib/python3.9/site-packages/dateutil/zoneinfo/__init__.py',
   'PYMODULE'),
  ('dateutil.rrule',
   '/home/alex/.pyenv/versions/3.9.1/envs/venv/lib/python3.9/site-packages/dateutil/rrule.py',
   'PYMODULE'),
  ('dateutil.easter',
   '/home/alex/.pyenv/versions/3.9.1/envs/venv/lib/python3.9/site-packages/dateutil/easter.py',
   'PYMODULE'),
  ('dateutil._common',
   '/home/alex/.pyenv/versions/3.9.1/envs/venv/lib/python3.9/site-packages/dateutil/_common.py',
   'PYMODULE'),
  ('dateutil.tz.win',
   '/home/alex/.pyenv/versions/3.9.1/envs/venv/lib/python3.9/site-packages/dateutil/tz/win.py',
   'PYMODULE'),
  ('dateutil.tz._factories',
   '/home/alex/.pyenv/versions/3.9.1/envs/venv/lib/python3.9/site-packages/dateutil/tz/_factories.py',
   'PYMODULE'),
  ('dateutil.tz._common',
   '/home/alex/.pyenv/versions/3.9.1/envs/venv/lib/python3.9/site-packages/dateutil/tz/_common.py',
   'PYMODULE'),
  ('dateutil.parser._parser',
   '/home/alex/.pyenv/versions/3.9.1/envs/venv/lib/python3.9/site-packages/dateutil/parser/_parser.py',
   'PYMODULE'),
  ('dateutil',
   '/home/alex/.pyenv/versions/3.9.1/envs/venv/lib/python3.9/site-packages/dateutil/__init__.py',
   'PYMODULE'),
  ('dateutil._version',
   '/home/alex/.pyenv/versions/3.9.1/envs/venv/lib/python3.9/site-packages/dateutil/_version.py',
   'PYMODULE'),
  ('dateutil.relativedelta',
   '/home/alex/.pyenv/versions/3.9.1/envs/venv/lib/python3.9/site-packages/dateutil/relativedelta.py',
   'PYMODULE'),
  ('pandas.plotting._matplotlib.boxplot',
   '/home/alex/.pyenv/versions/3.9.1/envs/venv/lib/python3.9/site-packages/pandas/plotting/_matplotlib/boxplot.py',
   'PYMODULE'),
  ('pandas.util.version',
   '/home/alex/.pyenv/versions/3.9.1/envs/venv/lib/python3.9/site-packages/pandas/util/version/__init__.py',
   'PYMODULE'),
  ('pandas.io.formats.excel',
   '/home/alex/.pyenv/versions/3.9.1/envs/venv/lib/python3.9/site-packages/pandas/io/formats/excel.py',
   'PYMODULE'),
  ('pandas.io.excel',
   '/home/alex/.pyenv/versions/3.9.1/envs/venv/lib/python3.9/site-packages/pandas/io/excel/__init__.py',
   'PYMODULE'),
  ('pandas.io.excel._xlwt',
   '/home/alex/.pyenv/versions/3.9.1/envs/venv/lib/python3.9/site-packages/pandas/io/excel/_xlwt.py',
   'PYMODULE'),
  ('pandas.io.excel._xlsxwriter',
   '/home/alex/.pyenv/versions/3.9.1/envs/venv/lib/python3.9/site-packages/pandas/io/excel/_xlsxwriter.py',
   'PYMODULE'),
  ('pandas.io.excel._util',
   '/home/alex/.pyenv/versions/3.9.1/envs/venv/lib/python3.9/site-packages/pandas/io/excel/_util.py',
   'PYMODULE'),
  ('pandas.io.excel._openpyxl',
   '/home/alex/.pyenv/versions/3.9.1/envs/venv/lib/python3.9/site-packages/pandas/io/excel/_openpyxl.py',
   'PYMODULE'),
  ('pandas.io.excel._odswriter',
   '/home/alex/.pyenv/versions/3.9.1/envs/venv/lib/python3.9/site-packages/pandas/io/excel/_odswriter.py',
   'PYMODULE'),
  ('pandas.io.excel._base',
   '/home/alex/.pyenv/versions/3.9.1/envs/venv/lib/python3.9/site-packages/pandas/io/excel/_base.py',
   'PYMODULE'),
  ('pandas.io.excel._xlrd',
   '/home/alex/.pyenv/versions/3.9.1/envs/venv/lib/python3.9/site-packages/pandas/io/excel/_xlrd.py',
   'PYMODULE'),
  ('pandas.io.excel._pyxlsb',
   '/home/alex/.pyenv/versions/3.9.1/envs/venv/lib/python3.9/site-packages/pandas/io/excel/_pyxlsb.py',
   'PYMODULE'),
  ('pandas.io.excel._odfreader',
   '/home/alex/.pyenv/versions/3.9.1/envs/venv/lib/python3.9/site-packages/pandas/io/excel/_odfreader.py',
   'PYMODULE'),
  ('pandas.io.parsers.readers',
   '/home/alex/.pyenv/versions/3.9.1/envs/venv/lib/python3.9/site-packages/pandas/io/parsers/readers.py',
   'PYMODULE'),
  ('pandas.io.parsers.python_parser',
   '/home/alex/.pyenv/versions/3.9.1/envs/venv/lib/python3.9/site-packages/pandas/io/parsers/python_parser.py',
   'PYMODULE'),
  ('pandas.io.parsers.c_parser_wrapper',
   '/home/alex/.pyenv/versions/3.9.1/envs/venv/lib/python3.9/site-packages/pandas/io/parsers/c_parser_wrapper.py',
   'PYMODULE'),
  ('pandas.io.parsers.base_parser',
   '/home/alex/.pyenv/versions/3.9.1/envs/venv/lib/python3.9/site-packages/pandas/io/parsers/base_parser.py',
   'PYMODULE'),
  ('pandas.io.date_converters',
   '/home/alex/.pyenv/versions/3.9.1/envs/venv/lib/python3.9/site-packages/pandas/io/date_converters.py',
   'PYMODULE'),
  ('pandas.io.parsers.arrow_parser_wrapper',
   '/home/alex/.pyenv/versions/3.9.1/envs/venv/lib/python3.9/site-packages/pandas/io/parsers/arrow_parser_wrapper.py',
   'PYMODULE'),
  ('pandas.io.parsers',
   '/home/alex/.pyenv/versions/3.9.1/envs/venv/lib/python3.9/site-packages/pandas/io/parsers/__init__.py',
   'PYMODULE'),
  ('pandas.io.common',
   '/home/alex/.pyenv/versions/3.9.1/envs/venv/lib/python3.9/site-packages/pandas/io/common.py',
   'PYMODULE'),
  ('pandas._config.config',
   '/home/alex/.pyenv/versions/3.9.1/envs/venv/lib/python3.9/site-packages/pandas/_config/config.py',
   'PYMODULE'),
  ('pandas.io.formats.css',
   '/home/alex/.pyenv/versions/3.9.1/envs/venv/lib/python3.9/site-packages/pandas/io/formats/css.py',
   'PYMODULE'),
  ('pandas.io.formats._color_data',
   '/home/alex/.pyenv/versions/3.9.1/envs/venv/lib/python3.9/site-packages/pandas/io/formats/_color_data.py',
   'PYMODULE'),
  ('pandas.io.formats.style_render',
   '/home/alex/.pyenv/versions/3.9.1/envs/venv/lib/python3.9/site-packages/pandas/io/formats/style_render.py',
   'PYMODULE'),
  ('pandas.api.types',
   '/home/alex/.pyenv/versions/3.9.1/envs/venv/lib/python3.9/site-packages/pandas/api/types/__init__.py',
   'PYMODULE'),
  ('pandas.core.dtypes.api',
   '/home/alex/.pyenv/versions/3.9.1/envs/venv/lib/python3.9/site-packages/pandas/core/dtypes/api.py',
   'PYMODULE'),
  ('pandas.io.formats.console',
   '/home/alex/.pyenv/versions/3.9.1/envs/venv/lib/python3.9/site-packages/pandas/io/formats/console.py',
   'PYMODULE'),
  ('pandas.core.reshape.concat',
   '/home/alex/.pyenv/versions/3.9.1/envs/venv/lib/python3.9/site-packages/pandas/core/reshape/concat.py',
   'PYMODULE'),
  ('pandas.core.resample',
   '/home/alex/.pyenv/versions/3.9.1/envs/venv/lib/python3.9/site-packages/pandas/core/resample.py',
   'PYMODULE'),
  ('pandas.core.indexes.timedeltas',
   '/home/alex/.pyenv/versions/3.9.1/envs/venv/lib/python3.9/site-packages/pandas/core/indexes/timedeltas.py',
   'PYMODULE'),
  ('pandas.core.groupby.ops',
   '/home/alex/.pyenv/versions/3.9.1/envs/venv/lib/python3.9/site-packages/pandas/core/groupby/ops.py',
   'PYMODULE'),
  ('pandas.core.groupby',
   '/home/alex/.pyenv/versions/3.9.1/envs/venv/lib/python3.9/site-packages/pandas/core/groupby/__init__.py',
   'PYMODULE'),
  ('pandas.core.groupby.numba_',
   '/home/alex/.pyenv/versions/3.9.1/envs/venv/lib/python3.9/site-packages/pandas/core/groupby/numba_.py',
   'PYMODULE'),
  ('pandas.core.util.numba_',
   '/home/alex/.pyenv/versions/3.9.1/envs/venv/lib/python3.9/site-packages/pandas/core/util/numba_.py',
   'PYMODULE'),
  ('pandas.core.util',
   '/home/alex/.pyenv/versions/3.9.1/envs/venv/lib/python3.9/site-packages/pandas/core/util/__init__.py',
   'PYMODULE'),
  ('pandas.core.groupby.base',
   '/home/alex/.pyenv/versions/3.9.1/envs/venv/lib/python3.9/site-packages/pandas/core/groupby/base.py',
   'PYMODULE'),
  ('pandas.core.arrays.floating',
   '/home/alex/.pyenv/versions/3.9.1/envs/venv/lib/python3.9/site-packages/pandas/core/arrays/floating.py',
   'PYMODULE'),
  ('pandas.core.arrays.boolean',
   '/home/alex/.pyenv/versions/3.9.1/envs/venv/lib/python3.9/site-packages/pandas/core/arrays/boolean.py',
   'PYMODULE'),
  ('pandas.core.groupby.grouper',
   '/home/alex/.pyenv/versions/3.9.1/envs/venv/lib/python3.9/site-packages/pandas/core/groupby/grouper.py',
   'PYMODULE'),
  ('pandas.core.groupby.categorical',
   '/home/alex/.pyenv/versions/3.9.1/envs/venv/lib/python3.9/site-packages/pandas/core/groupby/categorical.py',
   'PYMODULE'),
  ('pandas.core.groupby.groupby',
   '/home/alex/.pyenv/versions/3.9.1/envs/venv/lib/python3.9/site-packages/pandas/core/groupby/groupby.py',
   'PYMODULE'),
  ('pandas.core._numba.kernels',
   '/home/alex/.pyenv/versions/3.9.1/envs/venv/lib/python3.9/site-packages/pandas/core/_numba/kernels/__init__.py',
   'PYMODULE'),
  ('pandas.core._numba.kernels.var_',
   '/home/alex/.pyenv/versions/3.9.1/envs/venv/lib/python3.9/site-packages/pandas/core/_numba/kernels/var_.py',
   'PYMODULE'),
  ('pandas.core._numba.kernels.shared',
   '/home/alex/.pyenv/versions/3.9.1/envs/venv/lib/python3.9/site-packages/pandas/core/_numba/kernels/shared.py',
   'PYMODULE'),
  ('pandas.core._numba.kernels.sum_',
   '/home/alex/.pyenv/versions/3.9.1/envs/venv/lib/python3.9/site-packages/pandas/core/_numba/kernels/sum_.py',
   'PYMODULE'),
  ('pandas.core._numba.kernels.min_max_',
   '/home/alex/.pyenv/versions/3.9.1/envs/venv/lib/python3.9/site-packages/pandas/core/_numba/kernels/min_max_.py',
   'PYMODULE'),
  ('pandas.core._numba.kernels.mean_',
   '/home/alex/.pyenv/versions/3.9.1/envs/venv/lib/python3.9/site-packages/pandas/core/_numba/kernels/mean_.py',
   'PYMODULE'),
  ('pandas.core.window',
   '/home/alex/.pyenv/versions/3.9.1/envs/venv/lib/python3.9/site-packages/pandas/core/window/__init__.py',
   'PYMODULE'),
  ('pandas.core.window.rolling',
   '/home/alex/.pyenv/versions/3.9.1/envs/venv/lib/python3.9/site-packages/pandas/core/window/rolling.py',
   'PYMODULE'),
  ('pandas.core.window.numba_',
   '/home/alex/.pyenv/versions/3.9.1/envs/venv/lib/python3.9/site-packages/pandas/core/window/numba_.py',
   'PYMODULE'),
  ('pandas.core.window.doc',
   '/home/alex/.pyenv/versions/3.9.1/envs/venv/lib/python3.9/site-packages/pandas/core/window/doc.py',
   'PYMODULE'),
  ('pandas.core.window.common',
   '/home/alex/.pyenv/versions/3.9.1/envs/venv/lib/python3.9/site-packages/pandas/core/window/common.py',
   'PYMODULE'),
  ('pandas.core.indexers.objects',
   '/home/alex/.pyenv/versions/3.9.1/envs/venv/lib/python3.9/site-packages/pandas/core/indexers/objects.py',
   'PYMODULE'),
  ('pandas.core.window.expanding',
   '/home/alex/.pyenv/versions/3.9.1/envs/venv/lib/python3.9/site-packages/pandas/core/window/expanding.py',
   'PYMODULE'),
  ('pandas.core.window.ewm',
   '/home/alex/.pyenv/versions/3.9.1/envs/venv/lib/python3.9/site-packages/pandas/core/window/ewm.py',
   'PYMODULE'),
  ('pandas.core.window.online',
   '/home/alex/.pyenv/versions/3.9.1/envs/venv/lib/python3.9/site-packages/pandas/core/window/online.py',
   'PYMODULE'),
  ('pandas.core.sample',
   '/home/alex/.pyenv/versions/3.9.1/envs/venv/lib/python3.9/site-packages/pandas/core/sample.py',
   'PYMODULE'),
  ('pandas.core.internals.blocks',
   '/home/alex/.pyenv/versions/3.9.1/envs/venv/lib/python3.9/site-packages/pandas/core/internals/blocks.py',
   'PYMODULE'),
  ('pandas.core.computation.expressions',
   '/home/alex/.pyenv/versions/3.9.1/envs/venv/lib/python3.9/site-packages/pandas/core/computation/expressions.py',
   'PYMODULE'),
  ('pandas.core.computation',
   '/home/alex/.pyenv/versions/3.9.1/envs/venv/lib/python3.9/site-packages/pandas/core/computation/__init__.py',
   'PYMODULE'),
  ('pandas.core.computation.check',
   '/home/alex/.pyenv/versions/3.9.1/envs/venv/lib/python3.9/site-packages/pandas/core/computation/check.py',
   'PYMODULE'),
  ('pandas.core.array_algos.transforms',
   '/home/alex/.pyenv/versions/3.9.1/envs/venv/lib/python3.9/site-packages/pandas/core/array_algos/transforms.py',
   'PYMODULE'),
  ('pandas.core.array_algos.replace',
   '/home/alex/.pyenv/versions/3.9.1/envs/venv/lib/python3.9/site-packages/pandas/core/array_algos/replace.py',
   'PYMODULE'),
  ('pandas.core.array_algos.putmask',
   '/home/alex/.pyenv/versions/3.9.1/envs/venv/lib/python3.9/site-packages/pandas/core/array_algos/putmask.py',
   'PYMODULE'),
  ('pandas.core.groupby.indexing',
   '/home/alex/.pyenv/versions/3.9.1/envs/venv/lib/python3.9/site-packages/pandas/core/groupby/indexing.py',
   'PYMODULE'),
  ('pandas.core._numba.executor',
   '/home/alex/.pyenv/versions/3.9.1/envs/venv/lib/python3.9/site-packages/pandas/core/_numba/executor.py',
   'PYMODULE'),
  ('pandas.core._numba',
   '/home/alex/.pyenv/versions/3.9.1/envs/venv/lib/python3.9/site-packages/pandas/core/_numba/__init__.py',
   'PYMODULE'),
  ('pandas.core.groupby.generic',
   '/home/alex/.pyenv/versions/3.9.1/envs/venv/lib/python3.9/site-packages/pandas/core/groupby/generic.py',
   'PYMODULE'),
  ('pandas.core.reshape.tile',
   '/home/alex/.pyenv/versions/3.9.1/envs/venv/lib/python3.9/site-packages/pandas/core/reshape/tile.py',
   'PYMODULE'),
  ('pandas.core.reshape.merge',
   '/home/alex/.pyenv/versions/3.9.1/envs/venv/lib/python3.9/site-packages/pandas/core/reshape/merge.py',
   'PYMODULE'),
  ('pandas.core.indexes.category',
   '/home/alex/.pyenv/versions/3.9.1/envs/venv/lib/python3.9/site-packages/pandas/core/indexes/category.py',
   'PYMODULE'),
  ('pandas.core.frame',
   '/home/alex/.pyenv/versions/3.9.1/envs/venv/lib/python3.9/site-packages/pandas/core/frame.py',
   'PYMODULE'),
  ('pandas.core.reshape.pivot',
   '/home/alex/.pyenv/versions/3.9.1/envs/venv/lib/python3.9/site-packages/pandas/core/reshape/pivot.py',
   'PYMODULE'),
  ('pandas.core.reshape.util',
   '/home/alex/.pyenv/versions/3.9.1/envs/venv/lib/python3.9/site-packages/pandas/core/reshape/util.py',
   'PYMODULE'),
  ('pandas.core.computation.eval',
   '/home/alex/.pyenv/versions/3.9.1/envs/venv/lib/python3.9/site-packages/pandas/core/computation/eval.py',
   'PYMODULE'),
  ('pandas.core.computation.ops',
   '/home/alex/.pyenv/versions/3.9.1/envs/venv/lib/python3.9/site-packages/pandas/core/computation/ops.py',
   'PYMODULE'),
  ('pandas.core.computation.common',
   '/home/alex/.pyenv/versions/3.9.1/envs/venv/lib/python3.9/site-packages/pandas/core/computation/common.py',
   'PYMODULE'),
  ('pandas.core.computation.scope',
   '/home/alex/.pyenv/versions/3.9.1/envs/venv/lib/python3.9/site-packages/pandas/core/computation/scope.py',
   'PYMODULE'),
  ('pandas.compat.chainmap',
   '/home/alex/.pyenv/versions/3.9.1/envs/venv/lib/python3.9/site-packages/pandas/compat/chainmap.py',
   'PYMODULE'),
  ('pandas.core.computation.parsing',
   '/home/alex/.pyenv/versions/3.9.1/envs/venv/lib/python3.9/site-packages/pandas/core/computation/parsing.py',
   'PYMODULE'),
  ('pandas.core.computation.expr',
   '/home/alex/.pyenv/versions/3.9.1/envs/venv/lib/python3.9/site-packages/pandas/core/computation/expr.py',
   'PYMODULE'),
  ('pandas.core.computation.engines',
   '/home/alex/.pyenv/versions/3.9.1/envs/venv/lib/python3.9/site-packages/pandas/core/computation/engines.py',
   'PYMODULE'),
  ('pandas.core.computation.align',
   '/home/alex/.pyenv/versions/3.9.1/envs/venv/lib/python3.9/site-packages/pandas/core/computation/align.py',
   'PYMODULE'),
  ('pandas.io.formats.xml',
   '/home/alex/.pyenv/versions/3.9.1/envs/venv/lib/python3.9/site-packages/pandas/io/formats/xml.py',
   'PYMODULE'),
  ('xml.dom.minidom',
   '/home/alex/.pyenv/versions/3.9.1/lib/python3.9/xml/dom/minidom.py',
   'PYMODULE'),
  ('xml.dom.pulldom',
   '/home/alex/.pyenv/versions/3.9.1/lib/python3.9/xml/dom/pulldom.py',
   'PYMODULE'),
  ('xml.dom.expatbuilder',
   '/home/alex/.pyenv/versions/3.9.1/lib/python3.9/xml/dom/expatbuilder.py',
   'PYMODULE'),
  ('xml.dom.NodeFilter',
   '/home/alex/.pyenv/versions/3.9.1/lib/python3.9/xml/dom/NodeFilter.py',
   'PYMODULE'),
  ('xml.dom.xmlbuilder',
   '/home/alex/.pyenv/versions/3.9.1/lib/python3.9/xml/dom/xmlbuilder.py',
   'PYMODULE'),
  ('xml.dom.minicompat',
   '/home/alex/.pyenv/versions/3.9.1/lib/python3.9/xml/dom/minicompat.py',
   'PYMODULE'),
  ('xml.dom.domreg',
   '/home/alex/.pyenv/versions/3.9.1/lib/python3.9/xml/dom/domreg.py',
   'PYMODULE'),
  ('xml.dom',
   '/home/alex/.pyenv/versions/3.9.1/lib/python3.9/xml/dom/__init__.py',
   'PYMODULE'),
  ('xml.etree.ElementTree',
   '/home/alex/.pyenv/versions/3.9.1/lib/python3.9/xml/etree/ElementTree.py',
   'PYMODULE'),
  ('xml.etree.cElementTree',
   '/home/alex/.pyenv/versions/3.9.1/lib/python3.9/xml/etree/cElementTree.py',
   'PYMODULE'),
  ('xml.etree.ElementInclude',
   '/home/alex/.pyenv/versions/3.9.1/lib/python3.9/xml/etree/ElementInclude.py',
   'PYMODULE'),
  ('xml.etree.ElementPath',
   '/home/alex/.pyenv/versions/3.9.1/lib/python3.9/xml/etree/ElementPath.py',
   'PYMODULE'),
  ('xml.etree',
   '/home/alex/.pyenv/versions/3.9.1/lib/python3.9/xml/etree/__init__.py',
   'PYMODULE'),
  ('pandas.io.xml',
   '/home/alex/.pyenv/versions/3.9.1/envs/venv/lib/python3.9/site-packages/pandas/io/xml.py',
   'PYMODULE'),
  ('pandas.io.orc',
   '/home/alex/.pyenv/versions/3.9.1/envs/venv/lib/python3.9/site-packages/pandas/io/orc.py',
   'PYMODULE'),
  ('pandas.io.parquet',
   '/home/alex/.pyenv/versions/3.9.1/envs/venv/lib/python3.9/site-packages/pandas/io/parquet.py',
   'PYMODULE'),
  ('pandas.io.feather_format',
   '/home/alex/.pyenv/versions/3.9.1/envs/venv/lib/python3.9/site-packages/pandas/io/feather_format.py',
   'PYMODULE'),
  ('pandas.io.stata',
   '/home/alex/.pyenv/versions/3.9.1/envs/venv/lib/python3.9/site-packages/pandas/io/stata.py',
   'PYMODULE'),
  ('pandas.io.gbq',
   '/home/alex/.pyenv/versions/3.9.1/envs/venv/lib/python3.9/site-packages/pandas/io/gbq.py',
   'PYMODULE'),
  ('pandas.core.interchange.dataframe',
   '/home/alex/.pyenv/versions/3.9.1/envs/venv/lib/python3.9/site-packages/pandas/core/interchange/dataframe.py',
   'PYMODULE'),
  ('pandas.core.interchange',
   '/home/alex/.pyenv/versions/3.9.1/envs/venv/lib/python3.9/site-packages/pandas/core/interchange/__init__.py',
   'PYMODULE'),
  ('pandas.core.interchange.column',
   '/home/alex/.pyenv/versions/3.9.1/envs/venv/lib/python3.9/site-packages/pandas/core/interchange/column.py',
   'PYMODULE'),
  ('pandas.core.interchange.utils',
   '/home/alex/.pyenv/versions/3.9.1/envs/venv/lib/python3.9/site-packages/pandas/core/interchange/utils.py',
   'PYMODULE'),
  ('pandas.core.interchange.buffer',
   '/home/alex/.pyenv/versions/3.9.1/envs/venv/lib/python3.9/site-packages/pandas/core/interchange/buffer.py',
   'PYMODULE'),
  ('pandas.core.interchange.dataframe_protocol',
   '/home/alex/.pyenv/versions/3.9.1/envs/venv/lib/python3.9/site-packages/pandas/core/interchange/dataframe_protocol.py',
   'PYMODULE'),
  ('pandas.core.reshape.melt',
   '/home/alex/.pyenv/versions/3.9.1/envs/venv/lib/python3.9/site-packages/pandas/core/reshape/melt.py',
   'PYMODULE'),
  ('pandas.core.internals.construction',
   '/home/alex/.pyenv/versions/3.9.1/envs/venv/lib/python3.9/site-packages/pandas/core/internals/construction.py',
   'PYMODULE'),
  ('pandas.core.internals.managers',
   '/home/alex/.pyenv/versions/3.9.1/envs/venv/lib/python3.9/site-packages/pandas/core/internals/managers.py',
   'PYMODULE'),
  ('pandas.core.internals.ops',
   '/home/alex/.pyenv/versions/3.9.1/envs/venv/lib/python3.9/site-packages/pandas/core/internals/ops.py',
   'PYMODULE'),
  ('pandas.core.internals.base',
   '/home/alex/.pyenv/versions/3.9.1/envs/venv/lib/python3.9/site-packages/pandas/core/internals/base.py',
   'PYMODULE'),
  ('pandas.core.internals.array_manager',
   '/home/alex/.pyenv/versions/3.9.1/envs/venv/lib/python3.9/site-packages/pandas/core/internals/array_manager.py',
   'PYMODULE'),
  ('pandas.core.indexes.multi',
   '/home/alex/.pyenv/versions/3.9.1/envs/venv/lib/python3.9/site-packages/pandas/core/indexes/multi.py',
   'PYMODULE'),
  ('pandas.core.array_algos.take',
   '/home/alex/.pyenv/versions/3.9.1/envs/venv/lib/python3.9/site-packages/pandas/core/array_algos/take.py',
   'PYMODULE'),
  ('pandas.io.formats.info',
   '/home/alex/.pyenv/versions/3.9.1/envs/venv/lib/python3.9/site-packages/pandas/io/formats/info.py',
   'PYMODULE'),
  ('pandas.io.formats.format',
   '/home/alex/.pyenv/versions/3.9.1/envs/venv/lib/python3.9/site-packages/pandas/io/formats/format.py',
   'PYMODULE'),
  ('pandas.io.formats.csvs',
   '/home/alex/.pyenv/versions/3.9.1/envs/venv/lib/python3.9/site-packages/pandas/io/formats/csvs.py',
   'PYMODULE'),
  ('pandas.io.formats.string',
   '/home/alex/.pyenv/versions/3.9.1/envs/venv/lib/python3.9/site-packages/pandas/io/formats/string.py',
   'PYMODULE'),
  ('pandas.io.formats.html',
   '/home/alex/.pyenv/versions/3.9.1/envs/venv/lib/python3.9/site-packages/pandas/io/formats/html.py',
   'PYMODULE'),
  ('pandas.io.formats.latex',
   '/home/alex/.pyenv/versions/3.9.1/envs/venv/lib/python3.9/site-packages/pandas/io/formats/latex.py',
   'PYMODULE'),
  ('pandas.core.tools.datetimes',
   '/home/alex/.pyenv/versions/3.9.1/envs/venv/lib/python3.9/site-packages/pandas/core/tools/datetimes.py',
   'PYMODULE'),
  ('pandas.core.strings',
   '/home/alex/.pyenv/versions/3.9.1/envs/venv/lib/python3.9/site-packages/pandas/core/strings/__init__.py',
   'PYMODULE'),
  ('pandas.core.strings.base',
   '/home/alex/.pyenv/versions/3.9.1/envs/venv/lib/python3.9/site-packages/pandas/core/strings/base.py',
   'PYMODULE'),
  ('pandas.core.strings.accessor',
   '/home/alex/.pyenv/versions/3.9.1/envs/venv/lib/python3.9/site-packages/pandas/core/strings/accessor.py',
   'PYMODULE'),
  ('pandas.core.sorting',
   '/home/alex/.pyenv/versions/3.9.1/envs/venv/lib/python3.9/site-packages/pandas/core/sorting.py',
   'PYMODULE'),
  ('pandas.core.shared_docs',
   '/home/alex/.pyenv/versions/3.9.1/envs/venv/lib/python3.9/site-packages/pandas/core/shared_docs.py',
   'PYMODULE'),
  ('pandas.core.internals',
   '/home/alex/.pyenv/versions/3.9.1/envs/venv/lib/python3.9/site-packages/pandas/core/internals/__init__.py',
   'PYMODULE'),
  ('pandas.core.internals.concat',
   '/home/alex/.pyenv/versions/3.9.1/envs/venv/lib/python3.9/site-packages/pandas/core/internals/concat.py',
   'PYMODULE'),
  ('pandas.core.internals.api',
   '/home/alex/.pyenv/versions/3.9.1/envs/venv/lib/python3.9/site-packages/pandas/core/internals/api.py',
   'PYMODULE'),
  ('pandas.core.indexing',
   '/home/alex/.pyenv/versions/3.9.1/envs/venv/lib/python3.9/site-packages/pandas/core/indexing.py',
   'PYMODULE'),
  ('pandas.core.indexes.base',
   '/home/alex/.pyenv/versions/3.9.1/envs/venv/lib/python3.9/site-packages/pandas/core/indexes/base.py',
   'PYMODULE'),
  ('pandas.core.arrays.numpy_',
   '/home/alex/.pyenv/versions/3.9.1/envs/venv/lib/python3.9/site-packages/pandas/core/arrays/numpy_.py',
   'PYMODULE'),
  ('pandas.core.strings.object_array',
   '/home/alex/.pyenv/versions/3.9.1/envs/venv/lib/python3.9/site-packages/pandas/core/strings/object_array.py',
   'PYMODULE'),
  ('pandas.core.indexes.api',
   '/home/alex/.pyenv/versions/3.9.1/envs/venv/lib/python3.9/site-packages/pandas/core/indexes/api.py',
   'PYMODULE'),
  ('pandas.core.indexes.interval',
   '/home/alex/.pyenv/versions/3.9.1/envs/venv/lib/python3.9/site-packages/pandas/core/indexes/interval.py',
   'PYMODULE'),
  ('pandas.core.indexes.accessors',
   '/home/alex/.pyenv/versions/3.9.1/envs/venv/lib/python3.9/site-packages/pandas/core/indexes/accessors.py',
   'PYMODULE'),
  ('pandas.core.indexers',
   '/home/alex/.pyenv/versions/3.9.1/envs/venv/lib/python3.9/site-packages/pandas/core/indexers/__init__.py',
   'PYMODULE'),
  ('pandas.core.indexers.utils',
   '/home/alex/.pyenv/versions/3.9.1/envs/venv/lib/python3.9/site-packages/pandas/core/indexers/utils.py',
   'PYMODULE'),
  ('pandas.core.generic',
   '/home/alex/.pyenv/versions/3.9.1/envs/venv/lib/python3.9/site-packages/pandas/core/generic.py',
   'PYMODULE'),
  ('pandas.io.clipboards',
   '/home/alex/.pyenv/versions/3.9.1/envs/venv/lib/python3.9/site-packages/pandas/io/clipboards.py',
   'PYMODULE'),
  ('pandas.io.clipboard',
   '/home/alex/.pyenv/versions/3.9.1/envs/venv/lib/python3.9/site-packages/pandas/io/clipboard/__init__.py',
   'PYMODULE'),
  ('pandas.io.pickle',
   '/home/alex/.pyenv/versions/3.9.1/envs/venv/lib/python3.9/site-packages/pandas/io/pickle.py',
   'PYMODULE'),
  ('pandas.compat.pickle_compat',
   '/home/alex/.pyenv/versions/3.9.1/envs/venv/lib/python3.9/site-packages/pandas/compat/pickle_compat.py',
   'PYMODULE'),
  ('pandas.io.sql',
   '/home/alex/.pyenv/versions/3.9.1/envs/venv/lib/python3.9/site-packages/pandas/io/sql.py',
   'PYMODULE'),
  ('sqlite3',
   '/home/alex/.pyenv/versions/3.9.1/lib/python3.9/sqlite3/__init__.py',
   'PYMODULE'),
  ('sqlite3.dump',
   '/home/alex/.pyenv/versions/3.9.1/lib/python3.9/sqlite3/dump.py',
   'PYMODULE'),
  ('sqlite3.dbapi2',
   '/home/alex/.pyenv/versions/3.9.1/lib/python3.9/sqlite3/dbapi2.py',
   'PYMODULE'),
  ('pandas.io.pytables',
   '/home/alex/.pyenv/versions/3.9.1/envs/venv/lib/python3.9/site-packages/pandas/io/pytables.py',
   'PYMODULE'),
  ('pandas.core.computation.pytables',
   '/home/alex/.pyenv/versions/3.9.1/envs/venv/lib/python3.9/site-packages/pandas/core/computation/pytables.py',
   'PYMODULE'),
  ('pandas.core.flags',
   '/home/alex/.pyenv/versions/3.9.1/envs/venv/lib/python3.9/site-packages/pandas/core/flags.py',
   'PYMODULE'),
  ('pandas.core.describe',
   '/home/alex/.pyenv/versions/3.9.1/envs/venv/lib/python3.9/site-packages/pandas/core/describe.py',
   'PYMODULE'),
  ('pandas.core.arrays.categorical',
   '/home/alex/.pyenv/versions/3.9.1/envs/venv/lib/python3.9/site-packages/pandas/core/arrays/categorical.py',
   'PYMODULE'),
  ('pandas.core.apply',
   '/home/alex/.pyenv/versions/3.9.1/envs/venv/lib/python3.9/site-packages/pandas/core/apply.py',
   'PYMODULE'),
  ('pandas.core.accessor',
   '/home/alex/.pyenv/versions/3.9.1/envs/venv/lib/python3.9/site-packages/pandas/core/accessor.py',
   'PYMODULE'),
  ('pandas.core.ops',
   '/home/alex/.pyenv/versions/3.9.1/envs/venv/lib/python3.9/site-packages/pandas/core/ops/__init__.py',
   'PYMODULE'),
  ('pandas.core.ops.methods',
   '/home/alex/.pyenv/versions/3.9.1/envs/venv/lib/python3.9/site-packages/pandas/core/ops/methods.py',
   'PYMODULE'),
  ('pandas.core.ops.mask_ops',
   '/home/alex/.pyenv/versions/3.9.1/envs/venv/lib/python3.9/site-packages/pandas/core/ops/mask_ops.py',
   'PYMODULE'),
  ('pandas.core.ops.docstrings',
   '/home/alex/.pyenv/versions/3.9.1/envs/venv/lib/python3.9/site-packages/pandas/core/ops/docstrings.py',
   'PYMODULE'),
  ('pandas.core.ops.array_ops',
   '/home/alex/.pyenv/versions/3.9.1/envs/venv/lib/python3.9/site-packages/pandas/core/ops/array_ops.py',
   'PYMODULE'),
  ('pandas.core.ops.dispatch',
   '/home/alex/.pyenv/versions/3.9.1/envs/venv/lib/python3.9/site-packages/pandas/core/ops/dispatch.py',
   'PYMODULE'),
  ('pandas.core.ops.missing',
   '/home/alex/.pyenv/versions/3.9.1/envs/venv/lib/python3.9/site-packages/pandas/core/ops/missing.py',
   'PYMODULE'),
  ('pandas.core.nanops',
   '/home/alex/.pyenv/versions/3.9.1/envs/venv/lib/python3.9/site-packages/pandas/core/nanops.py',
   'PYMODULE'),
  ('pandas.core.missing',
   '/home/alex/.pyenv/versions/3.9.1/envs/venv/lib/python3.9/site-packages/pandas/core/missing.py',
   'PYMODULE'),
  ('pandas.core.base',
   '/home/alex/.pyenv/versions/3.9.1/envs/venv/lib/python3.9/site-packages/pandas/core/base.py',
   'PYMODULE'),
  ('pandas.core.algorithms',
   '/home/alex/.pyenv/versions/3.9.1/envs/venv/lib/python3.9/site-packages/pandas/core/algorithms.py',
   'PYMODULE'),
  ('pandas.core.dtypes.inference',
   '/home/alex/.pyenv/versions/3.9.1/envs/venv/lib/python3.9/site-packages/pandas/core/dtypes/inference.py',
   'PYMODULE'),
  ('pandas.util._validators',
   '/home/alex/.pyenv/versions/3.9.1/envs/venv/lib/python3.9/site-packages/pandas/util/_validators.py',
   'PYMODULE'),
  ('pandas.compat.numpy.function',
   '/home/alex/.pyenv/versions/3.9.1/envs/venv/lib/python3.9/site-packages/pandas/compat/numpy/function.py',
   'PYMODULE'),
  ('pandas.compat.numpy',
   '/home/alex/.pyenv/versions/3.9.1/envs/venv/lib/python3.9/site-packages/pandas/compat/numpy/__init__.py',
   'PYMODULE'),
  ('pandas.core.arrays.string_',
   '/home/alex/.pyenv/versions/3.9.1/envs/venv/lib/python3.9/site-packages/pandas/core/arrays/string_.py',
   'PYMODULE'),
  ('pandas.core.arrays.string_arrow',
   '/home/alex/.pyenv/versions/3.9.1/envs/venv/lib/python3.9/site-packages/pandas/core/arrays/string_arrow.py',
   'PYMODULE'),
  ('pandas.core',
   '/home/alex/.pyenv/versions/3.9.1/envs/venv/lib/python3.9/site-packages/pandas/core/__init__.py',
   'PYMODULE'),
  ('pandas.core.common',
   '/home/alex/.pyenv/versions/3.9.1/envs/venv/lib/python3.9/site-packages/pandas/core/common.py',
   'PYMODULE'),
  ('pandas.core.dtypes.missing',
   '/home/alex/.pyenv/versions/3.9.1/envs/venv/lib/python3.9/site-packages/pandas/core/dtypes/missing.py',
   'PYMODULE'),
  ('pandas.core.dtypes.generic',
   '/home/alex/.pyenv/versions/3.9.1/envs/venv/lib/python3.9/site-packages/pandas/core/dtypes/generic.py',
   'PYMODULE'),
  ('pandas.core.dtypes.dtypes',
   '/home/alex/.pyenv/versions/3.9.1/envs/venv/lib/python3.9/site-packages/pandas/core/dtypes/dtypes.py',
   'PYMODULE'),
  ('pytz',
   '/home/alex/.pyenv/versions/3.9.1/envs/venv/lib/python3.9/site-packages/pytz/__init__.py',
   'PYMODULE'),
  ('pytz.tzfile',
   '/home/alex/.pyenv/versions/3.9.1/envs/venv/lib/python3.9/site-packages/pytz/tzfile.py',
   'PYMODULE'),
  ('pytz.tzinfo',
   '/home/alex/.pyenv/versions/3.9.1/envs/venv/lib/python3.9/site-packages/pytz/tzinfo.py',
   'PYMODULE'),
  ('pytz.lazy',
   '/home/alex/.pyenv/versions/3.9.1/envs/venv/lib/python3.9/site-packages/pytz/lazy.py',
   'PYMODULE'),
  ('pytz.exceptions',
   '/home/alex/.pyenv/versions/3.9.1/envs/venv/lib/python3.9/site-packages/pytz/exceptions.py',
   'PYMODULE'),
  ('pandas.core.dtypes.cast',
   '/home/alex/.pyenv/versions/3.9.1/envs/venv/lib/python3.9/site-packages/pandas/core/dtypes/cast.py',
   'PYMODULE'),
  ('pandas.core.dtypes.base',
   '/home/alex/.pyenv/versions/3.9.1/envs/venv/lib/python3.9/site-packages/pandas/core/dtypes/base.py',
   'PYMODULE'),
  ('pandas.core.arrays._mixins',
   '/home/alex/.pyenv/versions/3.9.1/envs/venv/lib/python3.9/site-packages/pandas/core/arrays/_mixins.py',
   'PYMODULE'),
  ('pandas.core.arrays',
   '/home/alex/.pyenv/versions/3.9.1/envs/venv/lib/python3.9/site-packages/pandas/core/arrays/__init__.py',
   'PYMODULE'),
  ('pandas._testing.contexts',
   '/home/alex/.pyenv/versions/3.9.1/envs/venv/lib/python3.9/site-packages/pandas/_testing/contexts.py',
   'PYMODULE'),
  ('pandas._testing.compat',
   '/home/alex/.pyenv/versions/3.9.1/envs/venv/lib/python3.9/site-packages/pandas/_testing/compat.py',
   'PYMODULE'),
  ('pandas._testing.asserters',
   '/home/alex/.pyenv/versions/3.9.1/envs/venv/lib/python3.9/site-packages/pandas/_testing/asserters.py',
   'PYMODULE'),
  ('pandas._testing._warnings',
   '/home/alex/.pyenv/versions/3.9.1/envs/venv/lib/python3.9/site-packages/pandas/_testing/_warnings.py',
   'PYMODULE'),
  ('pandas._testing._random',
   '/home/alex/.pyenv/versions/3.9.1/envs/venv/lib/python3.9/site-packages/pandas/_testing/_random.py',
   'PYMODULE'),
  ('pandas._testing._io',
   '/home/alex/.pyenv/versions/3.9.1/envs/venv/lib/python3.9/site-packages/pandas/_testing/_io.py',
   'PYMODULE'),
  ('pandas.core.dtypes.common',
   '/home/alex/.pyenv/versions/3.9.1/envs/venv/lib/python3.9/site-packages/pandas/core/dtypes/common.py',
   'PYMODULE'),
  ('pandas._typing',
   '/home/alex/.pyenv/versions/3.9.1/envs/venv/lib/python3.9/site-packages/pandas/_typing.py',
   'PYMODULE'),
  ('pandas._config.localization',
   '/home/alex/.pyenv/versions/3.9.1/envs/venv/lib/python3.9/site-packages/pandas/_config/localization.py',
   'PYMODULE'),
  ('pandas.util._exceptions',
   '/home/alex/.pyenv/versions/3.9.1/envs/venv/lib/python3.9/site-packages/pandas/util/_exceptions.py',
   'PYMODULE'),
  ('pandas.core.util.hashing',
   '/home/alex/.pyenv/versions/3.9.1/envs/venv/lib/python3.9/site-packages/pandas/core/util/hashing.py',
   'PYMODULE'),
  ('pandas.util._decorators',
   '/home/alex/.pyenv/versions/3.9.1/envs/venv/lib/python3.9/site-packages/pandas/util/_decorators.py',
   'PYMODULE'),
  ('pandas.compat._optional',
   '/home/alex/.pyenv/versions/3.9.1/envs/venv/lib/python3.9/site-packages/pandas/compat/_optional.py',
   'PYMODULE'),
  ('pandas.io.json',
   '/home/alex/.pyenv/versions/3.9.1/envs/venv/lib/python3.9/site-packages/pandas/io/json/__init__.py',
   'PYMODULE'),
  ('pandas.io.json._table_schema',
   '/home/alex/.pyenv/versions/3.9.1/envs/venv/lib/python3.9/site-packages/pandas/io/json/_table_schema.py',
   'PYMODULE'),
  ('pandas.io.json._normalize',
   '/home/alex/.pyenv/versions/3.9.1/envs/venv/lib/python3.9/site-packages/pandas/io/json/_normalize.py',
   'PYMODULE'),
  ('pandas.io.json._json',
   '/home/alex/.pyenv/versions/3.9.1/envs/venv/lib/python3.9/site-packages/pandas/io/json/_json.py',
   'PYMODULE'),
  ('pandas.io.api',
   '/home/alex/.pyenv/versions/3.9.1/envs/venv/lib/python3.9/site-packages/pandas/io/api.py',
   'PYMODULE'),
  ('pandas.io.spss',
   '/home/alex/.pyenv/versions/3.9.1/envs/venv/lib/python3.9/site-packages/pandas/io/spss.py',
   'PYMODULE'),
  ('pandas.io.sas',
   '/home/alex/.pyenv/versions/3.9.1/envs/venv/lib/python3.9/site-packages/pandas/io/sas/__init__.py',
   'PYMODULE'),
  ('pandas.io.sas.sasreader',
   '/home/alex/.pyenv/versions/3.9.1/envs/venv/lib/python3.9/site-packages/pandas/io/sas/sasreader.py',
   'PYMODULE'),
  ('pandas.io.sas.sas7bdat',
   '/home/alex/.pyenv/versions/3.9.1/envs/venv/lib/python3.9/site-packages/pandas/io/sas/sas7bdat.py',
   'PYMODULE'),
  ('pandas.io.sas.sas_constants',
   '/home/alex/.pyenv/versions/3.9.1/envs/venv/lib/python3.9/site-packages/pandas/io/sas/sas_constants.py',
   'PYMODULE'),
  ('pandas.io.sas.sas_xport',
   '/home/alex/.pyenv/versions/3.9.1/envs/venv/lib/python3.9/site-packages/pandas/io/sas/sas_xport.py',
   'PYMODULE'),
  ('pandas.io.html',
   '/home/alex/.pyenv/versions/3.9.1/envs/venv/lib/python3.9/site-packages/pandas/io/html.py',
   'PYMODULE'),
  ('pandas.util._print_versions',
   '/home/alex/.pyenv/versions/3.9.1/envs/venv/lib/python3.9/site-packages/pandas/util/_print_versions.py',
   'PYMODULE'),
  ('pandas.testing',
   '/home/alex/.pyenv/versions/3.9.1/envs/venv/lib/python3.9/site-packages/pandas/testing.py',
   'PYMODULE'),
  ('pandas.plotting',
   '/home/alex/.pyenv/versions/3.9.1/envs/venv/lib/python3.9/site-packages/pandas/plotting/__init__.py',
   'PYMODULE'),
  ('pandas.plotting._misc',
   '/home/alex/.pyenv/versions/3.9.1/envs/venv/lib/python3.9/site-packages/pandas/plotting/_misc.py',
   'PYMODULE'),
  ('pandas.plotting._core',
   '/home/alex/.pyenv/versions/3.9.1/envs/venv/lib/python3.9/site-packages/pandas/plotting/_core.py',
   'PYMODULE'),
  ('pandas.io',
   '/home/alex/.pyenv/versions/3.9.1/envs/venv/lib/python3.9/site-packages/pandas/io/__init__.py',
   'PYMODULE'),
  ('pandas.errors',
   '/home/alex/.pyenv/versions/3.9.1/envs/venv/lib/python3.9/site-packages/pandas/errors/__init__.py',
   'PYMODULE'),
  ('pandas.arrays',
   '/home/alex/.pyenv/versions/3.9.1/envs/venv/lib/python3.9/site-packages/pandas/arrays/__init__.py',
   'PYMODULE'),
  ('pandas.api',
   '/home/alex/.pyenv/versions/3.9.1/envs/venv/lib/python3.9/site-packages/pandas/api/__init__.py',
   'PYMODULE'),
  ('pandas.api.interchange',
   '/home/alex/.pyenv/versions/3.9.1/envs/venv/lib/python3.9/site-packages/pandas/api/interchange/__init__.py',
   'PYMODULE'),
  ('pandas.core.interchange.from_dataframe',
   '/home/alex/.pyenv/versions/3.9.1/envs/venv/lib/python3.9/site-packages/pandas/core/interchange/from_dataframe.py',
   'PYMODULE'),
  ('pandas.api.indexers',
   '/home/alex/.pyenv/versions/3.9.1/envs/venv/lib/python3.9/site-packages/pandas/api/indexers/__init__.py',
   'PYMODULE'),
  ('pandas.api.extensions',
   '/home/alex/.pyenv/versions/3.9.1/envs/venv/lib/python3.9/site-packages/pandas/api/extensions/__init__.py',
   'PYMODULE'),
  ('pandas.core.reshape.api',
   '/home/alex/.pyenv/versions/3.9.1/envs/venv/lib/python3.9/site-packages/pandas/core/reshape/api.py',
   'PYMODULE'),
  ('pandas.core.reshape.encoding',
   '/home/alex/.pyenv/versions/3.9.1/envs/venv/lib/python3.9/site-packages/pandas/core/reshape/encoding.py',
   'PYMODULE'),
  ('pandas.core.computation.api',
   '/home/alex/.pyenv/versions/3.9.1/envs/venv/lib/python3.9/site-packages/pandas/core/computation/api.py',
   'PYMODULE'),
  ('pandas.tseries.offsets',
   '/home/alex/.pyenv/versions/3.9.1/envs/venv/lib/python3.9/site-packages/pandas/tseries/offsets.py',
   'PYMODULE'),
  ('pandas.tseries',
   '/home/alex/.pyenv/versions/3.9.1/envs/venv/lib/python3.9/site-packages/pandas/tseries/__init__.py',
   'PYMODULE'),
  ('pandas.tseries.api',
   '/home/alex/.pyenv/versions/3.9.1/envs/venv/lib/python3.9/site-packages/pandas/tseries/api.py',
   'PYMODULE'),
  ('pandas.core.arrays.sparse',
   '/home/alex/.pyenv/versions/3.9.1/envs/venv/lib/python3.9/site-packages/pandas/core/arrays/sparse/__init__.py',
   'PYMODULE'),
  ('pandas.core.arrays.sparse.dtype',
   '/home/alex/.pyenv/versions/3.9.1/envs/venv/lib/python3.9/site-packages/pandas/core/arrays/sparse/dtype.py',
   'PYMODULE'),
  ('pandas.core.arrays.sparse.array',
   '/home/alex/.pyenv/versions/3.9.1/envs/venv/lib/python3.9/site-packages/pandas/core/arrays/sparse/array.py',
   'PYMODULE'),
  ('pandas.core.arrays.sparse.accessor',
   '/home/alex/.pyenv/versions/3.9.1/envs/venv/lib/python3.9/site-packages/pandas/core/arrays/sparse/accessor.py',
   'PYMODULE'),
  ('pandas.core.arrays.sparse.scipy_sparse',
   '/home/alex/.pyenv/versions/3.9.1/envs/venv/lib/python3.9/site-packages/pandas/core/arrays/sparse/scipy_sparse.py',
   'PYMODULE'),
  ('pandas.core.api',
   '/home/alex/.pyenv/versions/3.9.1/envs/venv/lib/python3.9/site-packages/pandas/core/api.py',
   'PYMODULE'),
  ('pandas.core.config_init',
   '/home/alex/.pyenv/versions/3.9.1/envs/venv/lib/python3.9/site-packages/pandas/core/config_init.py',
   'PYMODULE'),
  ('pandas._config',
   '/home/alex/.pyenv/versions/3.9.1/envs/venv/lib/python3.9/site-packages/pandas/_config/__init__.py',
   'PYMODULE'),
  ('pandas._config.display',
   '/home/alex/.pyenv/versions/3.9.1/envs/venv/lib/python3.9/site-packages/pandas/_config/display.py',
   'PYMODULE'),
  ('pandas._config.dates',
   '/home/alex/.pyenv/versions/3.9.1/envs/venv/lib/python3.9/site-packages/pandas/_config/dates.py',
   'PYMODULE'),
  ('pandas._libs',
   '/home/alex/.pyenv/versions/3.9.1/envs/venv/lib/python3.9/site-packages/pandas/_libs/__init__.py',
   'PYMODULE'),
  ('pandas.compat',
   '/home/alex/.pyenv/versions/3.9.1/envs/venv/lib/python3.9/site-packages/pandas/compat/__init__.py',
   'PYMODULE'),
  ('pandas.compat.pyarrow',
   '/home/alex/.pyenv/versions/3.9.1/envs/venv/lib/python3.9/site-packages/pandas/compat/pyarrow.py',
   'PYMODULE'),
  ('tkinter.messagebox',
   '/home/alex/.pyenv/versions/3.9.1/lib/python3.9/tkinter/messagebox.py',
   'PYMODULE'),
  ('tkinter.commondialog',
   '/home/alex/.pyenv/versions/3.9.1/lib/python3.9/tkinter/commondialog.py',
   'PYMODULE'),
  ('tkinter',
   '/home/alex/.pyenv/versions/3.9.1/lib/python3.9/tkinter/__init__.py',
   'PYMODULE'),
  ('tkinter.constants',
   '/home/alex/.pyenv/versions/3.9.1/lib/python3.9/tkinter/constants.py',
   'PYMODULE')])
